<?xml version="1.0" standalone="no"?>
<!DOCTYPE svg PUBLIC "-//W3C//DTD SVG 1.1//EN" "http://www.w3.org/Graphics/SVG/1.1/DTD/svg11.dtd" >
<svg xmlns="http://www.w3.org/2000/svg">
<metadata></metadata>
<defs>
<font id="MyriadProCondensedBold" horiz-adv-x="788" >
<font-face units-per-em="2048" ascent="1536" descent="-512" />
<missing-glyph horiz-adv-x="321" />
<glyph horiz-adv-x="2048" />
<glyph horiz-adv-x="2048" />
<glyph unicode="&#xd;" horiz-adv-x="2048" />
<glyph unicode=" "  horiz-adv-x="321" />
<glyph unicode="&#x09;" horiz-adv-x="321" />
<glyph unicode="&#xa0;" horiz-adv-x="321" />
<glyph unicode="!" horiz-adv-x="417" d="M109 94q0 50 28.5 81.5t71.5 31.5q46 0 73 -31t27 -82q0 -50 -26.5 -80t-73.5 -30h-2q-42 0 -70 30.5t-28 79.5zM121 1380h176l-23 -995h-133z" />
<glyph unicode="&#x22;" horiz-adv-x="632" d="M100 1399h148l-29 -477h-90zM387 1399h145l-26 -477h-92z" />
<glyph unicode="#" d="M45 408v106h148l38 313h-141v105h156l51 399h104l-51 -399h160l51 399h103l-52 -399h131v-105h-145l-39 -313h143v-102h-155l-53 -412h-107l53 412h-157l-52 -412h-106l53 408h-133zM297 514h158l39 313h-158z" />
<glyph unicode="$" d="M104 102l37 123q102 -65 209 -65q88 0 138.5 58t50.5 149q0 86 -43 148.5t-134 117.5q-55 33 -93.5 61.5t-77.5 69.5t-59.5 93t-20.5 114q0 119 66 204t165 111v199h115v-187q117 0 196 -55l-41 -121q-84 52 -176 52q-80 0 -127 -54t-47 -125q0 -45 10 -77.5t37 -61.5 t58 -50.5t88 -55.5q120 -70 176.5 -159t56.5 -206q0 -140 -68 -227.5t-176 -112.5v-217h-112v205q-130 3 -228 69z" />
<glyph unicode="%" horiz-adv-x="1320" d="M61 942q0 187 71.5 296.5t180.5 109.5h2q113 0 180.5 -109.5t67.5 -292.5q0 -198 -73 -301.5t-177 -103.5q-111 0 -181.5 109t-70.5 292zM184 944q0 -57 6 -107t20 -96.5t41 -74t64 -27.5t63.5 27.5t40 74.5t19.5 96t6 105t-5.5 105t-19 97t-40 76.5t-64.5 28.5h-2 q-36 0 -62 -28t-40 -74.5t-20.5 -97t-6.5 -105.5zM254 -29l709 1387h100l-709 -1387h-100zM758 387q0 186 71.5 296t180.5 110h2q112 0 180 -110.5t68 -293.5q0 -197 -73 -300t-177 -103q-112 0 -182 108t-70 293zM881 389q0 -56 7 -107.5t21.5 -97.5t41 -74t61.5 -28 q37 0 63.5 27.5t40 74.5t19.5 96.5t6 106.5q0 55 -6 105t-19.5 97.5t-40 76t-63.5 28.5h-2q-36 0 -62.5 -28t-40.5 -75t-20 -97t-6 -105z" />
<glyph unicode="&#x26;" horiz-adv-x="1005" d="M59 365q0 233 211 395v6q-100 159 -100 309q0 132 77.5 227t205.5 95q100 0 170.5 -75t70.5 -210q0 -104 -54 -192t-181 -179v-6q97 -167 262 -393q74 153 84 397h139q-27 -314 -149 -499q30 -47 176 -242h-176q-84 116 -95 131q-55 -69 -133.5 -107t-163.5 -38 q-83 0 -150.5 32.5t-108.5 87t-63 121.5t-22 140zM211 383q0 -113 57.5 -193.5t159.5 -80.5h2q122 0 203 120q-126 170 -299 435q-123 -119 -123 -281zM317 1085q0 -70 18.5 -128t59.5 -123q164 124 164 272q0 72 -29 123t-90 51h-2q-58 0 -89.5 -55t-31.5 -140z" />
<glyph unicode="'" horiz-adv-x="348" d="M100 1399h148l-29 -477h-90z" />
<glyph unicode="(" horiz-adv-x="518" d="M119 586q3 275 67.5 485.5t157.5 345.5h123q-213 -335 -213 -833q0 -491 213 -830h-123q-95 140 -160 349t-65 483z" />
<glyph unicode=")" horiz-adv-x="518" d="M51 -246q96 151 154.5 362.5t58.5 471.5q0 494 -213 829h123q95 -136 160 -344t65 -485q-3 -278 -67 -486t-158 -348h-123z" />
<glyph unicode="*" horiz-adv-x="763" d="M49 995v125l268 -33l2 5l-169 237l106 62l123 -263h4l117 269l110 -62l-174 -245v-5l277 35v-125l-277 31v-4l178 -236l-114 -65l-121 270l-4 -2l-123 -274l-105 67l175 246v2z" />
<glyph unicode="+" horiz-adv-x="1220" d="M82 492v110h471v488h115v-488h471v-110h-471v-492h-115v492h-471z" />
<glyph unicode="," horiz-adv-x="397" d="M35 -258q33 92 68.5 233t50.5 244l178 21q-33 -123 -90 -268.5t-99 -215.5z" />
<glyph unicode="-" horiz-adv-x="571" d="M61 473v123h449v-123h-449z" />
<glyph unicode="." horiz-adv-x="397" d="M100 102q0 52 30.5 85.5t74.5 33.5q47 0 75.5 -32.5t28.5 -86.5q0 -55 -27.5 -86.5t-76.5 -31.5q-45 0 -75 32.5t-30 85.5z" />
<glyph unicode="/" horiz-adv-x="575" d="M16 -82l441 1479h118l-442 -1479h-117z" />
<glyph unicode="0" d="M55 664q0 332 93 508t258 176q159 0 243 -179t84 -501q0 -345 -95.5 -514.5t-248.5 -169.5h-2q-156 0 -244 178t-88 502zM213 666q0 -253 45.5 -400t138.5 -147h2q90 0 133 147t43 400q0 120 -10 217t-31 172t-56 116t-81 41q-92 0 -138 -148t-46 -398z" />
<glyph unicode="1" d="M129 1167l281 164h131v-1331h-156v1171h-4l-221 -127z" />
<glyph unicode="2" d="M66 0v102l112 154q152 211 208 305q138 234 138 414q0 112 -49 174.5t-141 62.5q-20 0 -38.5 -2.5t-36 -8t-30.5 -10.5t-28.5 -14t-22.5 -13.5l-21 -13.5t-16 -11l-39 118q110 91 260 91q81 0 143 -28.5t99.5 -79t56.5 -115.5t19 -142q0 -89 -26 -182t-78.5 -189.5 t-100.5 -170t-123 -175.5l-90 -123v-4h445v-139h-641z" />
<glyph unicode="3" d="M57 45l35 125q90 -55 193 -55q104 0 166.5 71.5t62.5 194.5q0 129 -73 201.5t-195 72.5h-37v119h31q37 1 77 15.5t77 42t61 75t24 105.5q0 98 -48 151.5t-128 53.5q-77 0 -166 -64l-35 119q40 32 104.5 54t135.5 22q137 0 216 -87.5t79 -220.5q0 -101 -52 -183.5 t-147 -127.5v-4q100 -28 167 -115t67 -233q0 -169 -102.5 -281t-278.5 -112q-65 0 -130 16.5t-104 44.5z" />
<glyph unicode="4" d="M37 367v106l432 858h154v-835h145v-129h-145v-367h-144v367h-442zM186 496h293v376q0 72 13 263h-9q-65 -154 -112 -252l-185 -383v-4z" />
<glyph unicode="5" d="M53 41l35 127q87 -53 186 -53q107 0 179.5 80.5t72.5 226.5q0 151 -82 225t-219 74q-67 0 -104 -6l84 616h477v-139h-358l-56 -354q16 4 49 4q60 0 132 -26t122 -75q111 -111 111 -303q0 -199 -112.5 -326.5t-290.5 -127.5q-61 0 -124 15.5t-102 41.5z" />
<glyph unicode="6" d="M59 524q0 367 172 600q58 81 144.5 136t177.5 75q43 8 100 13v-134q-40 -3 -94 -14q-79 -19 -141 -67t-101 -116.5t-63 -140.5t-37 -155h6q85 127 226 127q129 0 207.5 -110.5t78.5 -299.5q0 -197 -86.5 -325.5t-240.5 -128.5q-112 0 -192 72t-118.5 192.5t-38.5 275.5z M215 504q1 -195 55 -296.5t138 -101.5h2q73 0 120.5 78.5t47.5 241.5q0 148 -47.5 224.5t-131.5 76.5q-52 0 -98 -36t-74 -107q-12 -28 -12 -80z" />
<glyph unicode="7" d="M76 1192v139h641v-94l-430 -1237h-154l422 1188v4h-479z" />
<glyph unicode="8" d="M57 326q0 228 219 381l-2 4q-82 56 -128 137.5t-46 167.5q0 149 91 240.5t219 91.5h2q91 0 157 -47t96.5 -117t30.5 -150q0 -191 -178 -313v-6q213 -142 213 -363q0 -158 -95 -263t-247 -105q-80 0 -144.5 30t-104.5 79t-61.5 109t-21.5 124zM215 352q0 -114 48 -183 t132 -69h2q78 0 129.5 61.5t51.5 180.5q0 106 -50.5 176.5t-140.5 130.5q-79 -49 -125.5 -129t-46.5 -168zM256 1026q0 -91 44 -149t120 -107q61 44 97 108.5t36 137.5q0 98 -39 156.5t-108 58.5h-3q-66 0 -106.5 -57t-40.5 -148z" />
<glyph unicode="9" d="M61 897q0 123 40.5 225t118 164t177.5 62q110 0 187 -73.5t112 -191.5t35 -270q0 -383 -176 -616q-57 -78 -137 -130t-170 -73q-54 -10 -111 -10v135q47 0 99 12q105 25 182 105q123 137 155 378h-6q-87 -112 -215 -112q-127 0 -209 108t-82 287zM217 911 q0 -143 48.5 -216.5t131.5 -73.5q50 0 95 31.5t69 86.5q12 35 12 86q0 200 -50.5 300t-133.5 100h-2q-67 0 -118.5 -78.5t-51.5 -235.5z" />
<glyph unicode=":" horiz-adv-x="397" d="M100 98q0 50 30 83.5t73 33.5q47 0 74.5 -32t27.5 -85q0 -52 -26.5 -83t-75.5 -31h-2q-43 0 -72 32t-29 82zM102 850q0 50 30 83.5t73 33.5q47 0 74.5 -32t27.5 -85q0 -52 -27 -83.5t-75 -31.5h-2q-43 0 -72 32.5t-29 82.5z" />
<glyph unicode=";" horiz-adv-x="397" d="M37 -258q33 92 68.5 233t50.5 244l174 21q-33 -123 -90 -268.5t-99 -215.5zM125 850q0 51 29.5 84t72.5 33q47 0 75 -32t28 -85q0 -52 -27 -83.5t-76 -31.5h-2q-43 0 -71.5 32t-28.5 83z" />
<glyph unicode="&#x3c;" horiz-adv-x="1220" d="M135 496v98l950 496v-138l-794 -405v-4l794 -408v-135z" />
<glyph unicode="=" horiz-adv-x="1220" d="M82 301v113h1057v-113h-1057zM82 688v113h1057v-113h-1057z" />
<glyph unicode="&#x3e;" horiz-adv-x="1220" d="M135 0v135l819 408v4l-819 407v136l950 -486v-119z" />
<glyph unicode="?" horiz-adv-x="632" d="M90 1352q29 20 85.5 36.5t117.5 16.5q74 0 130.5 -23.5t89.5 -64t49 -90t16 -105.5q0 -36 -7.5 -73.5t-16.5 -64.5t-28.5 -65.5t-30.5 -57.5t-37 -60.5t-34 -55.5q-49 -86 -65.5 -159.5t-6.5 -173.5l2 -35h-139l-4 31q-32 196 86 389q6 10 21.5 37t21 36.5t18 32 t17.5 33.5t13.5 30.5t12 33t8 31.5t6 35t1.5 36q0 84 -43 125t-115 41q-84 0 -135 -39zM174 96q0 52 29.5 84.5t72.5 32.5q47 0 75 -32t28 -85q0 -51 -27 -81.5t-76 -30.5h-2q-43 0 -71.5 31.5t-28.5 80.5z" />
<glyph unicode="@" horiz-adv-x="1208" d="M72 567q0 224 84 415.5t233.5 305t329.5 113.5q202 0 315 -136t113 -356q0 -282 -87.5 -437t-228.5 -155q-59 0 -91.5 41.5t-26.5 122.5h-6q-48 -88 -108 -126t-116 -38q-74 0 -120 58.5t-46 165.5q0 70 17.5 142t54 140t87.5 121t123.5 85t156.5 32q80 0 143 -29 l-82 -414q-42 -215 43 -215q77 0 136 132.5t59 334.5q0 216 -87 333.5t-263 117.5q-106 0 -204.5 -56t-173 -154t-119 -240.5t-44.5 -305.5q0 -247 111 -376.5t311 -129.5q123 0 252 66l24 -70q-123 -78 -303 -78q-102 0 -189.5 36.5t-154.5 107.5t-105 185.5t-38 260.5z M436 545q0 -66 22.5 -97.5t59.5 -31.5q61 0 118 76t77 170l59 299q-18 10 -57 10q-75 0 -140.5 -64t-102 -162t-36.5 -200z" />
<glyph unicode="A" horiz-adv-x="890" d="M45 0l315 1380h175l307 -1380h-156l-92 414h-305l-92 -414h-152zM311 541h262l-71 350q-28 140 -56 315h-8q-24 -159 -55 -315z" />
<glyph unicode="B" horiz-adv-x="851" d="M123 6v1354q107 26 231 26q204 0 305 -96q91 -85 91 -235q0 -106 -56 -186.5t-157 -120.5v-5q120 -32 188 -125t68 -227q0 -164 -99 -274q-111 -125 -364 -125q-132 0 -207 14zM281 125q36 -8 79 -8q125 0 198 71.5t73 202.5q0 135 -81 208t-200 75h-69v-549zM281 795h71 q99 0 169.5 68.5t70.5 174.5q0 103 -54 164.5t-173 61.5q-51 0 -84 -11v-458z" />
<glyph unicode="C" horiz-adv-x="763" d="M66 674q0 157 30 283.5t78.5 206t113.5 132.5t130.5 75t134.5 22q116 0 172 -35l-35 -133q-66 28 -139 28q-46 0 -90 -17.5t-86 -60t-73.5 -105.5t-51 -161.5t-19.5 -220.5q0 -123 18 -220t47.5 -160t72 -104.5t88.5 -59t98 -17.5q81 0 145 31l25 -133q-69 -37 -197 -37 q-211 0 -336.5 173t-125.5 513z" />
<glyph unicode="D" horiz-adv-x="911" d="M123 6v1354q88 26 213 26q207 0 323 -104q85 -74 136 -213.5t51 -345.5q0 -405 -166 -582q-131 -149 -381 -149q-110 0 -176 14zM281 129q23 -4 59 -4q55 0 102.5 16.5t92.5 58t77 107t51 171t19 241.5q0 264 -82 401t-246 137q-46 0 -73 -8v-1120z" />
<glyph unicode="E" horiz-adv-x="724" d="M123 0v1380h526v-137h-368v-455h346v-133h-346v-518h393v-137h-551z" />
<glyph unicode="F" horiz-adv-x="706" d="M123 0v1380h526v-137h-368v-483h344v-133h-344v-627h-158z" />
<glyph unicode="G" horiz-adv-x="892" d="M66 672q1 155 32 280.5t81.5 206t119 134.5t140 77t147.5 23q123 0 196 -39l-34 -135q-66 32 -160 32q-54 0 -103.5 -17t-97 -59t-82 -105t-55.5 -161.5t-21 -222.5q0 -154 27.5 -267t75 -175.5t103.5 -91.5t122 -29q64 0 96 16v451h-178v131h328v-686q-111 -47 -246 -47 q-204 0 -326 135q-78 82 -122 224q-43 139 -43 317v8z" />
<glyph unicode="H" horiz-adv-x="948" d="M123 0v1380h158v-592h387v592h157v-1380h-157v645h-387v-645h-158z" />
<glyph unicode="I" horiz-adv-x="407" d="M123 0v1380h158v-1380h-158z" />
<glyph unicode="J" horiz-adv-x="542" d="M6 -2l14 133q27 -8 76 -8q45 0 76 10.5t55 39t35.5 81t11.5 133.5v993h158v-991q0 -221 -82 -313t-241 -92q-65 0 -103 14z" />
<glyph unicode="K" horiz-adv-x="827" d="M123 0v1380h158v-655h4q23 42 86 166l258 489h174l-338 -589l346 -791h-170l-283 666l-77 -134v-532h-158z" />
<glyph unicode="L" horiz-adv-x="704" d="M123 0v1380h158v-1247h389v-133h-547z" />
<glyph unicode="M" horiz-adv-x="1226" d="M90 0l82 1380h170l162 -630q78 -303 110 -476h7q32 185 102 476l156 630h176l80 -1380h-148l-29 594q-15 287 -15 453q0 50 1 88h-8q-51 -256 -111 -480l-170 -647h-100l-162 621q-78 306 -112 506h-7q0 -157 -16 -551l-27 -584h-141z" />
<glyph unicode="N" horiz-adv-x="952" d="M123 0v1380h149l254 -647q131 -338 174 -481h5q-19 344 -19 635v493h143v-1380h-149l-262 664q-109 274 -164 469h-4q16 -245 16 -656v-477h-143z" />
<glyph unicode="O" horiz-adv-x="913" d="M66 692q0 336 110 520.5t295 184.5q177 0 277 -184t100 -513q0 -188 -31 -329t-86 -224t-125 -123t-155 -40h-2q-176 0 -279.5 183.5t-103.5 524.5zM229 692v-18q0 -98 10 -186q11 -96 36 -180.5t71.5 -134.5t110.5 -50h2q64 0 110 50t70 136t34.5 180.5t10.5 204.5 q0 106 -10.5 198.5t-35 178.5t-71 136t-110.5 50t-110.5 -50t-71.5 -135t-36 -180q-10 -87 -10 -183v-17z" />
<glyph unicode="P" horiz-adv-x="817" d="M123 0v1360q102 26 229 26q203 0 305 -102q103 -100 103 -285q0 -171 -84 -282q-55 -74 -143 -114t-183 -40q-46 0 -69 2v-565h-158zM281 698q27 -6 61 -6q120 0 190 77t70 220q0 55 -12.5 101.5t-38.5 85t-72.5 60t-109.5 21.5q-55 0 -88 -10v-549z" />
<glyph unicode="Q" horiz-adv-x="913" d="M66 692q0 339 110 522t297 183q177 0 276 -184t99 -513q0 -539 -236 -653v-8q41 -17 86.5 -34t101.5 -36.5t79 -27.5l-58 -127q-189 78 -317 149q-44 21 -51 21q-177 0 -282 179.5t-105 528.5zM229 692v-18q0 -99 10 -186q11 -96 36.5 -181t73 -134.5t112.5 -49.5h2 q62 0 107.5 49.5t69 135t34 180.5t10.5 206q0 107 -10.5 200.5t-34.5 178.5t-69.5 134.5t-108.5 49.5q-64 0 -111 -50t-72.5 -134.5t-37.5 -180.5q-11 -88 -11 -184v-16z" />
<glyph unicode="R" horiz-adv-x="837" d="M123 0v1360q98 26 227 26q211 0 312 -98q96 -99 96 -270q0 -254 -221 -354v-5q75 -23 118.5 -97t67.5 -212q44 -268 78 -350h-160q-29 60 -74 342q-23 142 -73.5 201t-151.5 59h-61v-602h-158zM281 723h65q114 0 183 75.5t69 200.5q0 258 -236 261q-51 0 -81 -9v-528z " />
<glyph unicode="S" horiz-adv-x="739" d="M57 47l35 135q36 -24 91.5 -39.5t107.5 -15.5q106 0 167.5 64t61.5 169q0 89 -45 153.5t-137 133.5q-260 181 -260 383q0 158 100.5 260.5t263.5 102.5q60 0 114 -15.5t81 -36.5l-39 -135q-66 47 -164 47q-95 0 -146.5 -59t-51.5 -137q0 -40 9.5 -74t23 -58t43 -52.5 t54 -47.5t72.5 -53q124 -87 182 -184t58 -213q0 -175 -109.5 -281t-277.5 -106q-68 0 -135.5 18t-98.5 41z" />
<glyph unicode="T" horiz-adv-x="724" d="M33 1239v141h661v-141h-252v-1239h-157v1239h-252z" />
<glyph unicode="U" horiz-adv-x="935" d="M121 461v919h158v-925q0 -332 188 -332q190 0 190 332v925h158v-901q0 -256 -94.5 -375.5t-257.5 -119.5q-342 0 -342 477z" />
<glyph unicode="V" horiz-adv-x="862" d="M33 1380h168l135 -647q69 -327 98 -530h6q20 174 92 534l132 643h167l-321 -1380h-162z" />
<glyph unicode="W" horiz-adv-x="1339" d="M41 1380h164l117 -665q46 -277 67 -498h8q6 61 16.5 133t17 109.5t25.5 136.5t23 121l127 663h135l127 -649q63 -335 80 -514h6q26 225 74 506l115 657h153l-268 -1380h-154l-133 672q-49 265 -69 452h-4q-33 -257 -76 -458l-137 -666h-148z" />
<glyph unicode="X" horiz-adv-x="802" d="M29 0l284 705l-274 675h164l123 -319q12 -27 82 -219h4q65 203 73 225l113 313h162l-271 -671l285 -709h-166l-125 332q-33 87 -84 241h-6q-65 -193 -84 -245l-119 -328h-161z" />
<glyph unicode="Y" horiz-adv-x="806" d="M20 1380h166l123 -346q61 -167 103 -311h4q39 141 100 317l117 340h166l-318 -790v-590h-157v584z" />
<glyph unicode="Z" horiz-adv-x="733" d="M41 0v94l473 1145v6h-434v135h610v-106l-465 -1133v-6h463v-135h-647z" />
<glyph unicode="[" horiz-adv-x="518" d="M152 -229v1634h305v-109h-178v-1417h178v-108h-305z" />
<glyph unicode="\" horiz-adv-x="575" d="M2 1397h119l438 -1479h-119z" />
<glyph unicode="]" horiz-adv-x="518" d="M63 -121h177v1417h-177v109h304v-1634h-304v108z" />
<glyph unicode="^" horiz-adv-x="1220" d="M131 387l422 944h115l422 -944h-134l-344 795h-6l-344 -795h-131z" />
<glyph unicode="_" horiz-adv-x="1024" d="M0 -154h1024v-102h-1024v102z" />
<glyph unicode="`" horiz-adv-x="614" d="M82 1382h160l157 -276h-102z" />
<glyph unicode="a" horiz-adv-x="745" d="M53 266q0 72 22.5 132t61.5 101.5t93 70.5t115.5 42.5t129.5 14.5v30q0 109 -35 167.5t-123 58.5q-84 0 -163 -52l-35 111q34 26 98 46t133 20q285 0 285 -355v-428q0 -162 10 -225h-143l-10 104h-7q-68 -120 -196 -120q-101 0 -168.5 78t-67.5 204zM207 283 q0 -89 36.5 -133t84.5 -44q54 0 94 39t53 111q4 18 4 55v201q-22 0 -41.5 -1.5t-48 -6.5t-52 -14t-49 -26.5t-42.5 -41t-28 -59.5t-11 -80z" />
<glyph unicode="b" horiz-adv-x="817" d="M100 0q1 18 3.5 68t4 95t1.5 75v1179h157v-543h4q70 134 209 134q119 0 195 -133t76 -369q0 -253 -88 -387.5t-213 -134.5q-73 0 -119 37.5t-78 107.5h-6l-10 -129h-136zM266 350q0 -45 6 -61q25 -98 65.5 -136t82.5 -38q46 0 80 29.5t53.5 83.5t29 121t9.5 149 q0 78 -9.5 143t-29.5 118t-54.5 83t-80.5 30q-53 0 -95.5 -54.5t-52.5 -121.5q-4 -23 -4 -69v-277z" />
<glyph unicode="c" horiz-adv-x="618" d="M68 489q0 144 45 260t135.5 186.5t210.5 70.5q83 0 139 -31l-31 -129q-52 26 -112 26q-75 0 -129 -56t-77.5 -140.5t-23.5 -186.5q0 -173 62.5 -271.5t171.5 -98.5q54 0 114 26l21 -120q-65 -37 -164 -37q-166 0 -264 130t-98 371z" />
<glyph unicode="d" horiz-adv-x="817" d="M68 492q0 249 87 382.5t212 133.5q57 0 104.5 -29.5t75.5 -89.5h4v528h156v-1179q0 -10 8 -238h-135l-11 125h-6q-28 -60 -81 -100.5t-126 -40.5q-129 0 -208.5 134.5t-79.5 373.5zM225 492q0 -166 43 -271.5t125 -105.5q110 0 152 170q6 27 6 65v264q0 43 -2 66 q-8 78 -50 135t-98 57q-47 0 -82.5 -31t-55 -85t-29 -120t-9.5 -144z" />
<glyph unicode="e" horiz-adv-x="743" d="M68 485q0 240 91.5 381.5t241.5 141.5q73 0 129 -36.5t89 -99t49 -139t16 -164.5q0 -63 -2 -88h-461q2 -368 236 -368q98 0 164 39l24 -117q-83 -47 -217 -47q-175 0 -267.5 132.5t-92.5 364.5zM223 598h309v18q0 128 -40 196q-44 74 -107 73q-71 0 -114 -87t-48 -200z " />
<glyph unicode="f" horiz-adv-x="466" d="M18 870v121h125v60q0 199 88 299q76 84 199 84q71 0 123 -25l-27 -123q-38 17 -86 17q-139 0 -139 -250v-62h180v-121h-180v-870h-158v870h-125z" />
<glyph unicode="g" horiz-adv-x="817" d="M68 492q0 131 28 233.5t73.5 162t99 90t110.5 30.5q121 0 184 -129h4l8 112h142q-8 -280 -8 -309v-555q0 -187 -23.5 -280t-75.5 -150q-93 -107 -264 -107q-129 0 -217 50l37 122q84 -43 184 -43q99 0 151 71t52 233v100h-4q-26 -58 -76.5 -89.5t-114.5 -31.5 q-131 0 -210.5 135.5t-79.5 354.5zM225 500q0 -181 49.5 -275t126.5 -94q103 0 142 141q10 39 10 90v287q0 45 -8 72q-40 151 -144 151q-84 0 -130 -101.5t-46 -270.5z" />
<glyph unicode="h" horiz-adv-x="829" d="M111 0v1417h157v-532h4q30 52 82 86q60 37 133 37q102 0 167 -87t65 -264v-657h-158v639q0 235 -133 235q-56 0 -95.5 -40t-58.5 -117q-6 -34 -6 -76v-641h-157z" />
<glyph unicode="i" horiz-adv-x="376" d="M88 1272q0 49 28 79.5t70 30.5q46 0 74.5 -30.5t28.5 -79.5t-28.5 -80t-74.5 -31h-2q-42 0 -69 31t-27 80zM111 0v991h157v-991h-157z" />
<glyph unicode="j" horiz-adv-x="385" d="M-57 -285q98 26 133 78q26 40 36.5 108t10.5 208v882h158v-928q0 -153 -23.5 -237t-77.5 -141q-41 -43 -103.5 -68t-113.5 -27zM100 1272q0 49 29.5 79.5t73.5 30.5t71 -30t27 -80q1 -49 -26.5 -80t-73.5 -31h-2q-42 0 -70.5 31t-28.5 80z" />
<glyph unicode="k" horiz-adv-x="724" d="M109 0v1417h157v-887h4q36 78 54 111l196 350h170l-262 -418l285 -573h-176l-215 467l-56 -92v-375h-157z" />
<glyph unicode="l" horiz-adv-x="376" d="M111 0v1417h157v-1417h-157z" />
<glyph unicode="m" horiz-adv-x="1269" d="M102 991h138l8 -123h4q34 64 91 102t132 38q72 0 126 -37.5t81 -114.5h4q41 75 98 113q56 39 138 39q107 0 172 -86t65 -265v-657h-155v621q0 55 -5 95t-19 78.5t-43.5 59t-72.5 20.5q-50 0 -89 -39t-56 -108q-6 -41 -6 -90v-637h-156v649q0 47 -5.5 83t-19 70.5t-42 53 t-70.5 18.5q-50 0 -92.5 -42.5t-55.5 -116.5q-6 -41 -6 -86v-629h-155v735q0 68 -4 151.5t-5 104.5z" />
<glyph unicode="n" horiz-adv-x="829" d="M102 991h138l8 -119h4q33 62 92 99t135 37q109 0 174.5 -85t65.5 -257v-666h-158v639q0 235 -137 235q-52 0 -94 -42t-56 -119q-6 -38 -6 -88v-625h-157v735q0 68 -4 151.5t-5 104.5z" />
<glyph unicode="o" horiz-adv-x="784" d="M68 494q0 131 27.5 232.5t74.5 161.5t105 90t124 30q140 0 230 -132t90 -380q0 -137 -29.5 -240.5t-79 -160.5t-104.5 -84t-115 -27h-2q-141 0 -231 130t-90 380zM223 496q0 -69 7 -130.5t24.5 -123t53 -97.5t85.5 -36h2q48 0 82 37.5t50 99.5t23 123t7 127t-7 126 t-23.5 122t-51.5 99.5t-84 37.5q-50 0 -85.5 -37.5t-52 -99.5t-23.5 -122t-7 -126z" />
<glyph unicode="p" horiz-adv-x="817" d="M100 991h142l8 -127h4q72 144 209 144q131 0 209 -134.5t78 -375.5q0 -133 -26 -234.5t-70 -161t-97.5 -89t-114.5 -29.5q-116 0 -172 114h-4v-491h-157v1075q0 68 -1.5 126.5t-4 110.5t-3.5 72zM266 365q0 -59 6 -82q21 -94 62 -131t84 -37q47 0 81.5 30.5t54 85.5 t28 120t8.5 145q0 107 -17 189t-57 134.5t-100 52.5q-52 0 -95 -55t-51 -125q-4 -25 -4 -76v-251z" />
<glyph unicode="q" horiz-adv-x="817" d="M68 483q0 250 90 387.5t221 137.5q124 0 184 -131l4 -3l8 117h142q-8 -140 -8 -309v-1075h-158v495h-6q-26 -53 -76 -85.5t-115 -32.5q-125 0 -205.5 131.5t-80.5 367.5zM225 492q0 -108 18 -191t58 -134.5t98 -51.5q104 0 144 166q8 25 8 84v256q0 47 -4 65 q-9 78 -50.5 132t-93.5 54q-91 0 -134.5 -105t-43.5 -275z" />
<glyph unicode="r" horiz-adv-x="507" d="M100 991h142l8 -155h4q26 73 84 122.5t125 49.5q6 0 17 -1t16 -1v-162q-10 2 -33 2q-73 0 -126 -59t-65 -148q-6 -41 -6 -90v-549h-157v735q0 49 -4 142.5t-5 113.5z" />
<glyph unicode="s" horiz-adv-x="591" d="M45 45l39 119q78 -51 160 -51q67 0 106 38.5t39 104.5q0 59 -27 102t-100 93q-101 66 -150 132.5t-49 149.5q0 119 78.5 197t194.5 78q93 0 178 -52l-43 -118q-64 43 -131 43q-61 0 -95 -37t-34 -88t25 -86t98 -86q97 -62 151 -134t54 -167q0 -143 -84 -219t-213 -76 q-56 0 -110.5 15.5t-86.5 41.5z" />
<glyph unicode="t" horiz-adv-x="522" d="M25 870v121h120v168l158 64v-232h191v-121h-191v-587q0 -164 105 -164q36 0 63 6l6 -121q-46 -16 -117 -16q-101 0 -155 59q-60 69 -60 250v573h-120z" />
<glyph unicode="u" horiz-adv-x="815" d="M106 365v626h158v-604q0 -63 5.5 -109t20 -84t41 -57.5t66.5 -19.5q61 0 97.5 43t44.5 88q8 36 8 90v653h158v-721q0 -66 4 -167t4 -103h-138l-10 104h-4q-29 -46 -85 -83t-128 -37q-127 0 -184.5 95.5t-57.5 285.5z" />
<glyph unicode="v" horiz-adv-x="710" d="M27 991h163l125 -557q29 -141 43 -241h7q7 55 41 241l122 557h156l-258 -991h-141z" />
<glyph unicode="w" horiz-adv-x="1159" d="M27 991h163l97 -485q6 -34 18 -100.5t21 -118.5t14 -97h8q18 133 62 312l114 489h121l109 -475q44 -197 63 -326h8q15 126 54 320l94 481h157l-249 -991h-129l-115 481q-28 109 -55 297h-4q-20 -150 -58 -303l-119 -475h-133z" />
<glyph unicode="x" horiz-adv-x="696" d="M23 0l235 498l-229 493h170l92 -211q14 -32 35.5 -93t29.5 -81h4q12 32 34.5 90.5t31.5 83.5l90 211h162l-236 -487l234 -504h-172l-94 223q-18 42 -66 172h-4q-15 -45 -66 -172l-92 -223h-159z" />
<glyph unicode="y" horiz-adv-x="708" d="M27 991h166l131 -569q5 -20 41 -205h4q9 52 43 203l116 571h156l-162 -637q-55 -226 -110.5 -381.5t-135.5 -257.5q-87 -109 -178 -151l-57 135q72 40 139 125q58 72 90 166q11 34 11 49q0 22 -5 37z" />
<glyph unicode="z" horiz-adv-x="641" d="M33 0v96l313 613q12 22 40 72.5t40 74.5v4h-354v131h528v-104l-309 -604q-11 -21 -39 -72t-41 -76v-4h389v-131h-567z" />
<glyph unicode="{" horiz-adv-x="518" d="M59 537v102q77 0 108.5 42t31.5 103q0 54 -13 177q-12 118 -12 182q0 132 71 197t187 65h25v-107h-31q-63 -7 -92 -45t-29 -108q0 -58 12 -160q11 -140 11 -151q1 -113 -34.5 -167.5t-107.5 -74.5v-4q72 -22 107.5 -76t34.5 -168q0 -14 -11 -154q-12 -102 -12 -157 q0 -72 28 -110.5t95 -45.5h29v-106h-27q-53 0 -97.5 14t-81 43.5t-57 81.5t-20.5 123q0 64 12 182q13 128 13 176q0 60 -31.5 103t-108.5 43z" />
<glyph unicode="|" horiz-adv-x="411" d="M141 -512v2048h129v-2048h-129z" />
<glyph unicode="}" horiz-adv-x="518" d="M61 -123h29q67 7 95 45.5t28 110.5q0 30 -10 157q-13 110 -13 154q-1 114 34.5 168t107.5 76v4q-72 20 -107.5 74.5t-34.5 167.5q0 40 13 151q10 127 10 160q0 70 -29 108t-92 45h-31v107h25q116 0 187 -65t71 -197q0 -64 -12 -182q-13 -124 -13 -177q0 -61 31.5 -103 t108.5 -42v-102q-77 0 -108.5 -43t-31.5 -103q0 -48 13 -176q12 -118 12 -182q0 -71 -20.5 -123t-57 -81.5t-81 -43.5t-97.5 -14h-27v106z" />
<glyph unicode="~" horiz-adv-x="1220" d="M150 453q-4 130 58.5 202t166.5 72q98 0 264 -86q155 -82 227 -82q51 0 75 44t22 116h110q7 -135 -50 -206t-161 -71q-58 0 -116.5 18t-147.5 64q-84 45 -138.5 66.5t-97.5 21.5q-105 0 -102 -159h-110z" />
<glyph unicode="&#xa1;" horiz-adv-x="417" d="M109 903q0 50 28.5 81.5t71.5 31.5h2q44 0 71 -31t27 -82q0 -50 -26.5 -80t-73.5 -30q-43 0 -71.5 30.5t-28.5 79.5zM121 -387l20 995h133l23 -995h-176z" />
<glyph unicode="&#xa2;" d="M127 672q0 182 75.5 311t205.5 158v192h112v-182q86 -4 137 -37l-28 -125q-66 37 -142 37q-55 0 -96 -33.5t-63 -89.5t-32.5 -117t-10.5 -127q0 -164 56 -258t157 -94q79 0 147 35l21 -119q-56 -35 -148 -41v-194h-112v198q-103 20 -177 105q-102 124 -102 381z" />
<glyph unicode="&#xa3;" d="M63 0v100q71 29 133 137.5t62 219.5q0 91 -12 168h-168v112h151q-28 128 -28 238q0 171 91.5 272t225.5 101q96 0 160 -41l-35 -127q-53 34 -125 34q-82 0 -123 -63t-41 -154q0 -102 27 -260h215v-112h-199q17 -150 -8 -258q-34 -136 -129 -228v-4h463v-135h-660z" />
<glyph unicode="&#xa4;" d="M-8 1063l84 86l127 -152q35 39 87.5 62.5t104.5 23.5h2q51 0 104.5 -23t88.5 -61l125 148l82 -82l-150 -150q49 -101 49 -241q0 -145 -49 -240l148 -153l-80 -82l-129 149q-36 -39 -90.5 -62.5t-104.5 -23.5q-51 0 -104 23t-86 61l-125 -147l-82 82l145 147 q-51 102 -51 242q0 138 55 245zM229 670q0 -127 46 -207t120 -80q77 -3 120.5 76.5t43.5 212.5q0 128 -43 209.5t-119 81.5h-2q-78 0 -122 -78t-44 -215z" />
<glyph unicode="&#xa5;" d="M31 1331h157l138 -391q51 -148 69 -209h4q30 110 68 211l143 389h150l-262 -608h223v-94h-262v-152h262v-94h-262v-383h-146v383h-256v94h256v152h-256v94h217z" />
<glyph unicode="&#xa6;" horiz-adv-x="411" d="M141 358h129v-716h-129v716zM141 666v716h129v-716h-129z" />
<glyph unicode="&#xa7;" horiz-adv-x="821" d="M63 705q0 132 142 241q-69 62 -72 166q0 131 97 207t233 76q127 0 207 -54l-37 -106q-71 49 -178 49q-74 0 -129.5 -37t-55.5 -112q0 -32 12 -59t26.5 -44t47.5 -36.5t52.5 -29t64.5 -28.5q65 -27 109 -52.5t87.5 -63.5t65 -90t21.5 -118q0 -77 -30 -135.5t-91 -111.5 q26 -26 46.5 -71.5t20.5 -102.5q0 -144 -94.5 -220.5t-236.5 -76.5q-77 0 -147.5 19t-110.5 50l39 111q99 -70 223 -70q82 0 137 41t55 121q0 69 -47.5 115.5t-167.5 103.5q-71 33 -116.5 60.5t-88.5 65.5t-63.5 85.5t-20.5 106.5zM188 723q0 -103 164 -178 q147 -72 201 -115q39 24 60.5 68.5t21.5 93.5q0 114 -141 184q-6 3 -29 13.5t-32.5 14.5t-30.5 14t-33 16.5t-29 16t-31.5 18.5t-27.5 18q-93 -63 -93 -162v-2z" />
<glyph unicode="&#xa8;" horiz-adv-x="614" d="M61 1229q0 39 26.5 65.5t64.5 26.5q36 0 61 -26.5t25 -65.5q0 -37 -25 -63.5t-61 -26.5h-2q-37 0 -63 26.5t-26 63.5zM375 1229q0 39 26.5 65.5t63.5 26.5t61.5 -26t24.5 -66q0 -37 -25 -63.5t-61 -26.5h-2q-35 0 -61.5 26.5t-26.5 63.5z" />
<glyph unicode="&#xa9;" horiz-adv-x="1386" d="M68 696q0 128 49 245t132.5 201.5t200 134.5t246.5 50h2q128 0 243.5 -50t198 -134.5t131 -201.5t48.5 -245q0 -174 -82 -319.5t-225.5 -230.5t-315.5 -85q-173 0 -317.5 85t-227.5 230.5t-83 319.5zM172 690q0 -113 40.5 -213.5t110 -173.5t167.5 -115.5t208 -42.5 q220 -1 370.5 158.5t150.5 392.5q0 150 -68.5 276t-188.5 198.5t-264 72.5h-2q-146 0 -266.5 -73t-189 -200t-68.5 -280zM354 684q0 113 54.5 201t144 134t195.5 46q71 0 134 -16.5t89 -34.5l-25 -82q-109 45 -201 45q-138 0 -211 -79.5t-73 -207.5q0 -124 76.5 -206.5 t207.5 -82.5q120 0 207 50l25 -78q-100 -60 -250 -60q-169 0 -271 106.5t-102 264.5z" />
<glyph unicode="&#xaa;" horiz-adv-x="559" d="M55 717q0 118 92 178.5t232 60.5v23q0 59 -30.5 94t-92.5 35q-72 0 -131 -43l-27 84q75 55 178 55q105 0 159 -64t54 -182v-268q0 -84 9 -151h-99l-10 71h-4q-51 -82 -156 -82q-72 0 -123 52t-51 137zM168 731q0 -52 29 -80t67 -28q64 0 101 61q16 24 16 45v141 q-30 0 -59 -4t-67.5 -16.5t-62.5 -43t-24 -75.5z" />
<glyph unicode="&#xab;" horiz-adv-x="724" d="M51 516l211 356h127l-213 -356l213 -356h-129zM342 516l213 356h127l-213 -356l213 -356h-129z" />
<glyph unicode="&#xac;" horiz-adv-x="1220" d="M82 702v113h1057v-569h-115v456h-942z" />
<glyph unicode="&#xad;" horiz-adv-x="571" d="M61 473v123h449v-123h-449z" />
<glyph unicode="&#xae;" horiz-adv-x="1044" d="M61 938q0 190 135.5 324.5t327.5 134.5h2q190 0 323.5 -134t133.5 -325q0 -127 -61 -233.5t-166.5 -168t-231.5 -61.5q-192 0 -327.5 135t-135.5 328zM152 936q0 -163 108.5 -277t265.5 -114q154 -1 262.5 113.5t108.5 277.5q0 161 -108.5 275t-262.5 114h-2 q-155 0 -263.5 -113.5t-108.5 -275.5zM354 670v512q105 14 148 14q109 0 160 -41q45 -36 45 -106q0 -47 -28 -79.5t-71 -43.5v-4q68 -12 86 -125q15 -98 33 -127h-86q-18 24 -37 131q-8 47 -33.5 68.5t-76.5 21.5h-56v-221h-84zM438 954h58q55 0 91 21.5t36 66.5 q0 38 -30.5 64.5t-94.5 26.5q-25 0 -60 -5v-174z" />
<glyph unicode="&#xaf;" horiz-adv-x="614" d="M106 1178v98h404v-98h-404z" />
<glyph unicode="&#xb0;" horiz-adv-x="573" d="M57 1137q0 111 75 188.5t177 77.5h2q105 0 176.5 -77t71.5 -185q0 -115 -75.5 -189.5t-176.5 -74.5q-106 0 -178 75t-72 185zM156 1137q0 -74 45 -126.5t110 -52.5t109.5 52.5t44.5 128.5q0 74 -43.5 127t-110.5 53h-2q-64 0 -108.5 -53.5t-44.5 -128.5z" />
<glyph unicode="&#xb1;" horiz-adv-x="1220" d="M82 0v113h1057v-113h-1057zM82 651v113h471v397h115v-397h471v-113h-471v-411h-115v411h-471z" />
<glyph unicode="&#xb2;" horiz-adv-x="569" d="M61 539v59l84 102q119 148 159 213q69 112 69 195q0 66 -33.5 99.5t-89.5 33.5q-67 0 -135 -55l-35 90q31 30 85 51t118 21q109 0 165 -62.5t56 -157.5q0 -52 -18.5 -107t-54.5 -111t-64.5 -94t-73.5 -91l-62 -76v-4h285v-106h-455z" />
<glyph unicode="&#xb3;" horiz-adv-x="569" d="M59 571l29 97q69 -41 141 -41q64 0 106 38t42 105q0 76 -48 116t-134 40h-15v86h13q33 1 68.5 14t65 44t29.5 73q0 52 -29 79t-79 27q-69 0 -127 -43l-27 88q74 54 178 54q99 0 153 -53t54 -134q0 -60 -34 -108t-95 -74v-4q61 -13 107.5 -67.5t46.5 -133.5 q0 -107 -75 -176.5t-202 -69.5q-94 0 -168 43z" />
<glyph unicode="&#xb4;" horiz-adv-x="614" d="M227 1106l158 276h160l-215 -276h-103z" />
<glyph unicode="&#xb6;" horiz-adv-x="821" d="M61 928q-5 90 20.5 169.5t79 143.5t145.5 101.5t212 37.5q90 0 182 -12v-1470h-102v1380h-121v-1380h-102v663h-13q-42 0 -89.5 22t-93.5 64t-79 116t-39 165z" />
<glyph unicode="&#xb7;" horiz-adv-x="397" d="M94 555q0 50 31.5 83.5t73.5 33.5q46 0 75 -32t29 -85t-28.5 -85t-75.5 -32h-2q-42 0 -72.5 33t-30.5 84z" />
<glyph unicode="&#xb8;" horiz-adv-x="614" d="M145 -373l33 86q50 -30 103 -30q73 0 73 61q0 76 -141 90l82 176h98l-57 -112q54 -8 93.5 -49t39.5 -97q0 -81 -55 -121.5t-131 -40.5q-70 0 -138 37z" />
<glyph unicode="&#xb9;" horiz-adv-x="569" d="M96 1239l195 98h104v-798h-123v682h-4l-149 -80z" />
<glyph unicode="&#xba;" horiz-adv-x="618" d="M70 866q0 162 70 250t173 88h2q110 0 171 -85.5t61 -250.5q0 -90 -20.5 -158t-56 -106.5t-76.5 -57t-87 -18.5q-105 0 -171 87t-66 251zM190 866q0 -97 29.5 -171t89.5 -74q36 0 61.5 22.5t37.5 61.5t17 77.5t5 83.5q0 44 -5 83t-17.5 78t-37.5 62t-61 23h-2 q-41 0 -69 -42.5t-38 -95.5t-10 -108z" />
<glyph unicode="&#xbb;" horiz-adv-x="724" d="M43 160l213 356l-213 356h127l211 -356l-207 -356h-131zM336 160l213 356l-213 356h127l211 -356l-209 -356h-129z" />
<glyph unicode="&#xbc;" horiz-adv-x="1255" d="M63 1239l193 98h106v-798h-122v682h-4l-152 -80zM219 -16l696 1364h101l-697 -1364h-100zM682 217v74l295 514h123v-492h94v-96h-94v-217h-117v217h-301zM805 313h178v205q0 10 8 150h-4q-11 -21 -32 -67t-37 -75l-113 -209v-4z" />
<glyph unicode="&#xbd;" horiz-adv-x="1255" d="M31 1239l194 98h105v-798h-123v682h-4l-150 -80zM170 -16l696 1364h101l-697 -1364h-100zM727 0v59l84 103q119 148 159 214q68 111 68 193q0 67 -33 100t-90 33q-67 0 -135 -55l-32 90q30 30 83 51t117 21q111 0 166 -62t55 -157q0 -68 -36 -148t-76 -133.5t-99 -122.5 l-61 -75v-5h287v-106h-457z" />
<glyph unicode="&#xbe;" horiz-adv-x="1255" d="M57 571l27 97q69 -41 143 -41q64 0 105 38t41 105q0 76 -47 116t-133 40h-17v86h14q55 2 108.5 36t53.5 95q0 51 -28.5 78.5t-77.5 27.5q-67 0 -129 -43l-27 88q78 54 180 54q97 0 152 -53.5t55 -133.5q0 -60 -34.5 -108t-96.5 -74v-4q62 -13 109 -67t47 -134 q0 -107 -75.5 -176.5t-201.5 -69.5q-97 0 -168 43zM254 -16l696 1364h101l-697 -1364h-100zM688 217v74l295 514h121v-492h96v-96h-96v-217h-115v217h-301zM809 313h180v205q0 80 8 150h-4q-9 -17 -31.5 -64.5t-39.5 -77.5l-113 -209v-4z" />
<glyph unicode="&#xbf;" horiz-adv-x="632" d="M57 -127q0 36 7.5 73.5t16.5 64.5t28.5 65.5t30.5 57.5t37 60.5t34 55.5q49 87 66.5 161t5.5 173l-2 34h141l4 -30q29 -196 -86 -389q-4 -7 -20 -33t-20 -33t-16.5 -29.5t-16.5 -30.5t-13.5 -27.5t-12.5 -29.5t-9 -27.5t-7.5 -31t-3.5 -30t-2 -33.5q0 -84 43 -125 t115 -41q79 0 135 39l35 -123q-29 -20 -86 -37t-119 -17q-74 0 -130.5 23.5t-89.5 64t-49 90t-16 105.5zM256 901q0 52 28 83.5t74 31.5h2q45 0 73 -31.5t28 -83.5q0 -50 -28 -82.5t-73 -32.5q-47 0 -75.5 32.5t-28.5 82.5z" />
<glyph unicode="&#xc0;" horiz-adv-x="890" d="M45 0l315 1380h175l307 -1380h-156l-92 414h-305l-92 -414h-152zM158 1686h178l203 -232h-117zM311 541h262l-71 350q-28 140 -56 315h-8q-24 -159 -55 -315z" />
<glyph unicode="&#xc1;" horiz-adv-x="890" d="M45 0l315 1380h175l307 -1380h-156l-92 414h-305l-92 -414h-152zM311 541h262l-71 350q-28 140 -56 315h-8q-24 -159 -55 -315zM412 1454l202 232h181l-265 -232h-118z" />
<glyph unicode="&#xc2;" horiz-adv-x="890" d="M45 0l315 1380h175l307 -1380h-156l-92 414h-305l-92 -414h-152zM227 1454l168 232h113l170 -232h-127l-98 150h-4l-97 -150h-125zM311 541h262l-71 350q-28 140 -56 315h-8q-24 -159 -55 -315z" />
<glyph unicode="&#xc3;" horiz-adv-x="890" d="M45 0l315 1380h175l307 -1380h-156l-92 414h-305l-92 -414h-152zM236 1470q-1 85 31 133t89 48q43 0 99 -35t80 -35q25 0 38 16.5t17 57.5h82q2 -81 -30 -127.5t-97 -46.5q-42 0 -101 35q-4 2 -13.5 8.5t-13.5 8.5t-11.5 6.5t-12.5 6t-11.5 3t-12.5 1.5q-23 0 -34 -19.5 t-16 -60.5h-83zM311 541h262l-71 350q-28 140 -56 315h-8q-24 -159 -55 -315z" />
<glyph unicode="&#xc4;" horiz-adv-x="890" d="M45 0l315 1380h175l307 -1380h-156l-92 414h-305l-92 -414h-152zM207 1577q0 40 24.5 66t61.5 26q38 0 61 -26t23 -66q0 -41 -23 -66.5t-61 -25.5h-2q-36 0 -60 25.5t-24 66.5zM311 541h262l-71 350q-28 140 -56 315h-8q-24 -159 -55 -315zM524 1577q0 39 25 65.5 t61 26.5q38 0 62 -26t24 -66q0 -41 -24 -66.5t-62 -25.5h-2q-36 0 -60 25.5t-24 66.5z" />
<glyph unicode="&#xc5;" horiz-adv-x="890" d="M45 0l311 1364q-46 17 -74 57t-28 90q0 71 54 124t141 53t138.5 -51t51.5 -124q0 -50 -27.5 -91t-72.5 -60l303 -1362h-156l-92 414h-307l-90 -414h-152zM307 541h264l-73 362q-39 190 -54 301h-8q-12 -102 -55 -301zM352 1509q0 -43 25.5 -74.5t68.5 -31.5t69 31t26 79 q0 44 -26 74.5t-69 30.5h-2q-42 0 -67 -32t-25 -77z" />
<glyph unicode="&#xc6;" horiz-adv-x="1138" d="M16 0l416 1380h623v-137h-381l26 -463h351v-133h-338l28 -510h367l-2 -137h-506l-27 455h-274l-129 -455h-154zM332 582h229l-18 419l-13 269h-10q-71 -262 -80 -293z" />
<glyph unicode="&#xc7;" horiz-adv-x="811" d="M66 674q0 157 30 283.5t78.5 206t113.5 132.5t130.5 75t134.5 22q116 0 172 -35l-35 -133q-66 28 -139 28q-46 0 -90 -17.5t-86 -60t-73.5 -105.5t-51 -161.5t-19.5 -220.5q0 -123 18 -220t47.5 -160t72 -104.5t88.5 -59t98 -17.5q81 0 145 31l25 -133q-65 -35 -174 -35 l-45 -90q54 -8 93.5 -49t39.5 -99q0 -80 -55 -120t-131 -40q-78 0 -138 37l33 84q51 -28 103 -28q73 0 73 61q0 39 -39.5 61t-101.5 29l74 158q-179 28 -285 198.5t-106 481.5z" />
<glyph unicode="&#xc8;" horiz-adv-x="724" d="M109 1686h180l203 -232h-119zM123 0v1380h526v-137h-368v-455h346v-133h-346v-518h393v-137h-551z" />
<glyph unicode="&#xc9;" horiz-adv-x="724" d="M123 0v1380h526v-137h-368v-455h346v-133h-346v-518h393v-137h-551zM338 1454l203 232h178l-264 -232h-117z" />
<glyph unicode="&#xca;" horiz-adv-x="724" d="M123 0v1380h526v-137h-368v-455h346v-133h-346v-518h393v-137h-551zM164 1454l168 232h110l170 -232h-127l-96 150h-4l-98 -150h-123z" />
<glyph unicode="&#xcb;" horiz-adv-x="724" d="M123 0v1380h526v-137h-368v-455h346v-133h-346v-518h393v-137h-551zM150 1577q0 40 24.5 66t61.5 26q38 0 60.5 -26t22.5 -66q0 -42 -22.5 -67t-60.5 -25h-3q-36 0 -59.5 25.5t-23.5 66.5zM467 1577q0 39 25 65.5t61 26.5q38 0 62 -26t24 -66q0 -41 -24 -66.5t-62 -25.5 h-2q-36 0 -60 25.5t-24 66.5z" />
<glyph unicode="&#xcc;" horiz-adv-x="407" d="M-92 1686h180l203 -232h-119zM123 0v1380h158v-1380h-158z" />
<glyph unicode="&#xcd;" horiz-adv-x="407" d="M123 0v1380h158v-1380h-158zM150 1454l202 232h180l-264 -232h-118z" />
<glyph unicode="&#xce;" horiz-adv-x="407" d="M-20 1454l167 232h113l170 -232h-127l-98 150h-4l-97 -150h-124zM123 0v1380h158v-1380h-158z" />
<glyph unicode="&#xcf;" horiz-adv-x="407" d="M-41 1577q0 40 24.5 66t61.5 26q38 0 62 -26t24 -66q0 -41 -24 -66.5t-62 -25.5h-2q-36 0 -60 25.5t-24 66.5zM123 0v1380h158v-1380h-158zM279 1577q0 40 24 66t59 26q39 0 63 -26t24 -66q0 -41 -23.5 -66.5t-63.5 -25.5h-2q-36 0 -58.5 25.5t-22.5 66.5z" />
<glyph unicode="&#xd0;" horiz-adv-x="927" d="M0 662v116h141v582q85 26 211 26q208 0 324 -104q186 -157 186 -563q0 -407 -166 -584q-129 -147 -379 -147q-113 0 -176 14v660h-141zM297 123q25 -4 61 -4q55 0 102 16.5t92.5 59t77 108.5t51 172.5t19.5 243.5q0 538 -329 538q-28 0 -74 -8v-471h209v-116h-209v-539z " />
<glyph unicode="&#xd1;" horiz-adv-x="952" d="M123 0v1380h149l254 -647q132 -340 176 -481h5q-19 344 -19 635v493h141v-1380h-149l-262 664q-109 274 -164 469h-4q16 -245 16 -656v-477h-143zM266 1470q-3 84 29.5 132.5t91.5 48.5q43 0 96 -35q5 -3 17 -10.5t17.5 -10t14.5 -7t17 -6t16 -1.5q25 0 37.5 16.5 t15.5 57.5h82q3 -174 -127 -174q-37 0 -100 35q-51 34 -74 34q-22 0 -33 -19t-16 -61h-84z" />
<glyph unicode="&#xd2;" horiz-adv-x="913" d="M66 692q0 336 110 520.5t295 184.5q177 0 277 -184t100 -513q0 -188 -31 -329t-86 -224t-125 -123t-155 -40h-2q-176 0 -279.5 183.5t-103.5 524.5zM172 1686h180l203 -232h-119zM229 692q-1 -108 10 -203.5t36 -180.5t71.5 -135t110.5 -50h2q64 0 110 50t70 136 t34.5 180.5t10.5 204.5q0 106 -10.5 198.5t-35 178.5t-71 136t-110.5 50t-110.5 -50t-71.5 -135t-36 -180t-10 -200z" />
<glyph unicode="&#xd3;" horiz-adv-x="913" d="M66 692q0 336 110 520.5t295 184.5q177 0 277 -184t100 -513q0 -188 -31 -329t-86 -224t-125 -123t-155 -40h-2q-176 0 -279.5 183.5t-103.5 524.5zM229 692q-1 -108 10 -203.5t36 -180.5t71.5 -135t110.5 -50h2q64 0 110 50t70 136t34.5 180.5t10.5 204.5 q0 106 -10.5 198.5t-35 178.5t-71 136t-110.5 50t-110.5 -50t-71.5 -135t-36 -180t-10 -200zM424 1454l203 232h178l-264 -232h-117z" />
<glyph unicode="&#xd4;" horiz-adv-x="913" d="M66 692q0 336 110 520.5t295 184.5q177 0 277 -184t100 -513q0 -188 -31 -329t-86 -224t-125 -123t-155 -40h-2q-176 0 -279.5 183.5t-103.5 524.5zM229 692q-1 -108 10 -203.5t36 -180.5t71.5 -135t110.5 -50h2q64 0 110 50t70 136t34.5 180.5t10.5 204.5 q0 106 -10.5 198.5t-35 178.5t-71 136t-110.5 50t-110.5 -50t-71.5 -135t-36 -180t-10 -200zM231 1454l168 232h111l172 -232h-127l-98 150h-4l-97 -150h-125z" />
<glyph unicode="&#xd5;" horiz-adv-x="913" d="M66 692q0 336 110 520.5t295 184.5q177 0 277 -184t100 -513q0 -188 -31 -329t-86 -224t-125 -123t-155 -40h-2q-176 0 -279.5 183.5t-103.5 524.5zM229 692q-1 -108 10 -203.5t36 -180.5t71.5 -135t110.5 -50h2q64 0 110 50t70 136t34.5 180.5t10.5 204.5 q0 106 -10.5 198.5t-35 178.5t-71 136t-110.5 50t-110.5 -50t-71.5 -135t-36 -180t-10 -200zM240 1470q-3 85 29 133t91 48q43 0 99 -35t80 -35q25 0 38 16.5t17 57.5h82q2 -81 -30 -127.5t-99 -46.5q-38 0 -101 35q-51 34 -73 34t-33 -19t-16 -61h-84z" />
<glyph unicode="&#xd6;" horiz-adv-x="913" d="M66 692q0 336 110 520.5t295 184.5q177 0 277 -184t100 -513q0 -188 -31 -329t-86 -224t-125 -123t-155 -40h-2q-176 0 -279.5 183.5t-103.5 524.5zM211 1577q0 40 24.5 66t61.5 26q38 0 61 -26t23 -66q0 -41 -23 -66.5t-61 -25.5h-2q-36 0 -60 25.5t-24 66.5zM229 692 q-1 -108 10 -203.5t36 -180.5t71.5 -135t110.5 -50h2q64 0 110 50t70 136t34.5 180.5t10.5 204.5q0 106 -10.5 198.5t-35 178.5t-71 136t-110.5 50t-110.5 -50t-71.5 -135t-36 -180t-10 -200zM528 1577q0 40 24.5 66t61.5 26q38 0 62 -26t24 -66q0 -41 -24 -66.5t-62 -25.5 h-2q-36 0 -60 25.5t-24 66.5z" />
<glyph unicode="&#xd7;" horiz-adv-x="1220" d="M82 84l448 455l-448 456l76 82l450 -461l455 461l76 -82l-451 -458l449 -453l-78 -84l-449 459l-450 -459z" />
<glyph unicode="&#xd8;" horiz-adv-x="913" d="M66 692q0 336 108 520.5t285 184.5q120 0 207 -84l61 143l94 -41l-82 -186q109 -184 109 -527q0 -188 -30.5 -329t-85.5 -224.5t-123.5 -124t-151.5 -40.5q-128 0 -211 92l-70 -152l-88 47l86 195q-108 182 -108 526zM221 692q0 -212 39 -340h4l336 815q-59 90 -143 90 q-63 0 -110 -48t-73.5 -130.5t-39.5 -179.5t-13 -207zM305 225q55 -102 152 -102q64 0 111 48.5t72.5 132.5t37.5 181t12 209q0 211 -37 344h-4z" />
<glyph unicode="&#xd9;" horiz-adv-x="935" d="M121 461v919h158v-925q0 -332 188 -332q190 0 190 332v925h158v-901q0 -256 -94.5 -375.5t-257.5 -119.5q-342 0 -342 477zM209 1686h180l203 -232h-119z" />
<glyph unicode="&#xda;" horiz-adv-x="935" d="M121 461v919h158v-925q0 -332 188 -332q190 0 190 332v925h158v-901q0 -256 -94.5 -375.5t-257.5 -119.5q-342 0 -342 477zM414 1454l202 232h181l-265 -232h-118z" />
<glyph unicode="&#xdb;" horiz-adv-x="935" d="M121 461v919h158v-925q0 -332 188 -332q190 0 190 332v925h158v-901q0 -256 -94.5 -375.5t-257.5 -119.5q-342 0 -342 477zM248 1454l168 232h110l170 -232h-125l-98 150h-4l-98 -150h-123z" />
<glyph unicode="&#xdc;" horiz-adv-x="935" d="M121 461v919h158v-925q0 -332 188 -332q190 0 190 332v925h158v-901q0 -256 -94.5 -375.5t-257.5 -119.5q-342 0 -342 477zM223 1577q0 40 24.5 66t61.5 26q38 0 61 -26t23 -66q0 -41 -23 -66.5t-61 -25.5h-2q-36 0 -60 25.5t-24 66.5zM541 1577q0 39 25 65.5t61 26.5 q38 0 62 -26t24 -66q0 -41 -24 -66.5t-62 -25.5h-2q-36 0 -60 25.5t-24 66.5z" />
<glyph unicode="&#xdd;" horiz-adv-x="806" d="M20 1380h166l123 -346q61 -167 103 -311h4q39 141 100 317l117 340h166l-318 -790v-590h-157v584zM375 1454l203 232h180l-264 -232h-119z" />
<glyph unicode="&#xde;" horiz-adv-x="811" d="M123 0v1380h156v-272q40 6 104 6q173 0 274 -98q101 -101 101 -275q0 -102 -33 -182t-89.5 -129t-127.5 -74.5t-152 -25.5q-42 0 -77 6v-336h-156zM279 469q24 -8 71 -8q116 0 183 71t67 199q0 254 -238 254q-52 0 -83 -8v-508z" />
<glyph unicode="&#xdf;" horiz-adv-x="880" d="M111 0v922q0 298 129 421q97 91 239 91q125 0 213 -82.5t88 -237.5q0 -45 -14.5 -91.5t-34.5 -76.5q-63 -25 -99 -68.5t-36 -97.5q0 -34 13.5 -67t29.5 -54t49 -61q70 -80 103.5 -150t33.5 -157q0 -143 -93 -225t-226 -82q-100 0 -162 30l27 123q51 -26 133 -26 q77 0 123.5 46.5t46.5 116.5q0 43 -16.5 85t-36 69.5t-54.5 69.5q-41 48 -61.5 76t-40 78t-19.5 104q0 81 45 145.5t119 99.5q19 42 19 99q0 47 -11 84t-28 58.5t-40 36t-44 19.5t-43 5q-195 0 -195 -392v-911h-157z" />
<glyph unicode="&#xe0;" horiz-adv-x="745" d="M53 266q0 72 22.5 132t61.5 101.5t93 70.5t115.5 42.5t129.5 14.5v30q0 109 -35 167.5t-123 58.5q-84 0 -163 -52l-35 111q34 26 98 46t133 20q285 0 285 -355v-428q0 -162 10 -225h-143l-10 104h-7q-68 -120 -196 -120q-101 0 -168.5 78t-67.5 204zM121 1382h160 l157 -276h-104zM207 283q0 -89 36.5 -133t84.5 -44q54 0 94 39t53 111q4 18 4 55v201q-22 0 -41.5 -1.5t-48 -6.5t-52 -14t-49 -26.5t-42.5 -41t-28 -59.5t-11 -80z" />
<glyph unicode="&#xe1;" horiz-adv-x="745" d="M53 266q0 72 22.5 132t61.5 101.5t93 70.5t115.5 42.5t129.5 14.5v30q0 109 -35 167.5t-123 58.5q-84 0 -163 -52l-35 111q34 26 98 46t133 20q285 0 285 -355v-428q0 -162 10 -225h-143l-10 104h-7q-68 -120 -196 -120q-101 0 -168.5 78t-67.5 204zM207 283 q0 -89 36.5 -133t84.5 -44q54 0 94 39t53 111q4 18 4 55v201q-22 0 -41.5 -1.5t-48 -6.5t-52 -14t-49 -26.5t-42.5 -41t-28 -59.5t-11 -80zM297 1106l158 276h159l-215 -276h-102z" />
<glyph unicode="&#xe2;" horiz-adv-x="745" d="M53 266q0 72 22.5 132t61.5 101.5t93 70.5t115.5 42.5t129.5 14.5v30q0 109 -35 167.5t-123 58.5q-84 0 -163 -52l-35 111q34 26 98 46t133 20q285 0 285 -355v-428q0 -162 10 -225h-143l-10 104h-7q-68 -120 -196 -120q-101 0 -168.5 78t-67.5 204zM164 1106l158 276h88 l161 -276h-110l-92 174h-4l-95 -174h-106zM207 283q0 -89 36.5 -133t84.5 -44q54 0 94 39t53 111q4 18 4 55v201q-22 0 -41.5 -1.5t-48 -6.5t-52 -14t-49 -26.5t-42.5 -41t-28 -59.5t-11 -80z" />
<glyph unicode="&#xe3;" horiz-adv-x="745" d="M53 266q0 72 22.5 132t61.5 101.5t93 70.5t115.5 42.5t129.5 14.5v30q0 109 -35 167.5t-123 58.5q-84 0 -163 -52l-35 111q34 26 98 46t133 20q285 0 285 -355v-428q0 -162 10 -225h-143l-10 104h-7q-68 -120 -196 -120q-101 0 -168.5 78t-67.5 204zM154 1137 q0 77 32.5 128.5t92.5 51.5q12 0 23.5 -2t23 -7t17.5 -8t19 -10.5t17 -9.5q6 -3 20 -11.5t21.5 -12.5t18 -7.5t20.5 -3.5q25 0 37.5 17t15.5 59h78q0 -79 -31 -125.5t-94 -46.5q-38 0 -100 37q-56 35 -80 35q-43 0 -49 -84h-82zM207 283q0 -89 36.5 -133t84.5 -44 q54 0 94 39t53 111q4 18 4 55v201q-22 0 -41.5 -1.5t-48 -6.5t-52 -14t-49 -26.5t-42.5 -41t-28 -59.5t-11 -80z" />
<glyph unicode="&#xe4;" horiz-adv-x="745" d="M53 266q0 72 22.5 132t61.5 101.5t93 70.5t115.5 42.5t129.5 14.5v30q0 109 -35 167.5t-123 58.5q-84 0 -163 -52l-35 111q34 26 98 46t133 20q285 0 285 -355v-428q0 -162 10 -225h-143l-10 104h-7q-68 -120 -196 -120q-101 0 -168.5 78t-67.5 204zM127 1229q0 40 26 66 t64 26q36 0 61 -26.5t25 -65.5q0 -37 -25 -63.5t-61 -26.5h-2q-37 0 -62.5 26.5t-25.5 63.5zM207 283q0 -89 36.5 -133t84.5 -44q54 0 94 39t53 111q4 18 4 55v201q-22 0 -41.5 -1.5t-48 -6.5t-52 -14t-49 -26.5t-42.5 -41t-28 -59.5t-11 -80zM440 1229q0 39 26.5 65.5 t63.5 26.5t61.5 -26t24.5 -66q0 -37 -25 -63.5t-61 -26.5h-2q-35 0 -61.5 26.5t-26.5 63.5z" />
<glyph unicode="&#xe5;" horiz-adv-x="745" d="M53 266q0 72 22.5 132t61.5 101.5t93 70.5t115.5 42.5t129.5 14.5v30q0 109 -35 167.5t-123 58.5q-84 0 -163 -52l-35 111q34 26 98 46t133 20q285 0 285 -355v-428q0 -162 10 -225h-143l-10 104h-7q-68 -120 -196 -120q-101 0 -168.5 78t-67.5 204zM180 1266 q0 78 51.5 130t139.5 52h2q83 0 133.5 -51.5t50.5 -128.5q0 -76 -52.5 -126t-133.5 -50q-86 0 -138.5 50t-52.5 124zM207 283q0 -89 36.5 -133t84.5 -44q54 0 94 39t53 111q4 18 4 55v201q-22 0 -41.5 -1.5t-48 -6.5t-52 -14t-49 -26.5t-42.5 -41t-28 -59.5t-11 -80z M274 1266q0 -40 27 -71.5t70 -31.5q44 0 70 31t26 76q0 44 -25.5 75t-70.5 31h-2q-43 0 -69 -33t-26 -77z" />
<glyph unicode="&#xe6;" horiz-adv-x="1148" d="M53 270q0 87 34 155t93 109.5t134.5 62.5t162.5 21v56q0 95 -41 152t-125 57q-85 0 -159 -52l-35 109q42 28 103.5 48t123.5 20q82 0 144 -45t83 -134h4q33 84 98 131.5t144 47.5q92 0 155.5 -65t90.5 -161t27 -213q0 -12 -1.5 -36.5t-1.5 -38.5h-458q0 -111 17.5 -188.5 t50 -119t72 -59.5t91.5 -18q94 0 168 43l27 -113q-86 -55 -228 -55q-92 0 -168 50t-104 140h-4q-33 -89 -99 -139.5t-155 -50.5q-106 0 -175 78.5t-69 207.5zM201 281q0 -86 38 -129t91 -43q51 0 91 39.5t52 109.5q6 18 6 57v195q-32 0 -62 -3t-71.5 -17t-71.5 -37 t-51.5 -67.5t-21.5 -104.5zM631 606h307q4 134 -38 207.5t-103 73.5q-50 0 -88.5 -42.5t-57 -105t-20.5 -133.5z" />
<glyph unicode="&#xe7;" horiz-adv-x="616" d="M68 489q0 144 45 260t135.5 186.5t210.5 70.5q83 0 139 -31l-31 -129q-52 26 -112 26q-75 0 -129 -56t-77.5 -140.5t-23.5 -186.5q0 -173 62.5 -271.5t171.5 -98.5q66 0 114 28l25 -120q-67 -36 -158 -39l-45 -90q54 -8 93.5 -49t39.5 -97q0 -81 -55 -121.5t-131 -40.5 q-69 0 -137 37l33 86q50 -30 102 -30q74 0 74 63q0 74 -140 88l72 164q-131 30 -204.5 155t-73.5 336z" />
<glyph unicode="&#xe8;" horiz-adv-x="743" d="M68 485q0 240 91.5 381.5t241.5 141.5q73 0 129 -36.5t89 -99t49 -139t16 -164.5q0 -63 -2 -88h-461q2 -368 236 -368q98 0 164 39l24 -117q-83 -47 -217 -47q-175 0 -267.5 132.5t-92.5 364.5zM141 1382h162l158 -276h-105zM223 598h309q3 140 -40.5 213.5t-106.5 73.5 q-71 0 -114 -87t-48 -200z" />
<glyph unicode="&#xe9;" horiz-adv-x="743" d="M68 485q0 240 91.5 381.5t241.5 141.5q73 0 129 -36.5t89 -99t49 -139t16 -164.5q0 -63 -2 -88h-461q2 -368 236 -368q98 0 164 39l24 -117q-83 -47 -217 -47q-175 0 -267.5 132.5t-92.5 364.5zM223 598h309q3 140 -40.5 213.5t-106.5 73.5q-71 0 -114 -87t-48 -200z M330 1106l157 276h160l-215 -276h-102z" />
<glyph unicode="&#xea;" horiz-adv-x="743" d="M68 485q0 240 91.5 381.5t241.5 141.5q73 0 129 -36.5t89 -99t49 -139t16 -164.5q0 -63 -2 -88h-461q2 -368 236 -368q98 0 164 39l24 -117q-83 -47 -217 -47q-175 0 -267.5 132.5t-92.5 364.5zM195 1106l157 276h88l162 -276h-110l-95 174h-4l-92 -174h-106zM223 598 h309q3 140 -40.5 213.5t-106.5 73.5q-71 0 -114 -87t-48 -200z" />
<glyph unicode="&#xeb;" horiz-adv-x="743" d="M68 485q0 240 91.5 381.5t241.5 141.5q73 0 129 -36.5t89 -99t49 -139t16 -164.5q0 -63 -2 -88h-461q2 -368 236 -368q98 0 164 39l24 -117q-83 -47 -217 -47q-175 0 -267.5 132.5t-92.5 364.5zM158 1229q0 40 26 66t64 26q37 0 61.5 -26t24.5 -66q0 -37 -25 -63.5 t-61 -26.5h-2q-37 0 -62.5 26.5t-25.5 63.5zM223 598h309q3 140 -40.5 213.5t-106.5 73.5q-71 0 -114 -87t-48 -200zM473 1229q0 40 26 66t64 26q36 0 61 -26.5t25 -65.5q0 -37 -25 -63.5t-61 -26.5h-2q-37 0 -62.5 26.5t-25.5 63.5z" />
<glyph unicode="&#xec;" horiz-adv-x="376" d="M-57 1382h161l158 -276h-104zM111 0v991h157v-991h-157z" />
<glyph unicode="&#xed;" horiz-adv-x="376" d="M111 0v991h157v-991h-157zM111 1106l155 276h162l-215 -276h-102z" />
<glyph unicode="&#xee;" horiz-adv-x="376" d="M-14 1106l159 276h86l162 -276h-108l-95 174h-4l-94 -174h-106zM111 0v991h157v-991h-157z" />
<glyph unicode="&#xef;" horiz-adv-x="376" d="M-57 1229q0 39 26.5 65.5t63.5 26.5t61.5 -26t24.5 -66q0 -37 -25 -63.5t-61 -26.5h-2q-35 0 -61.5 26.5t-26.5 63.5zM111 0v991h157v-991h-157zM258 1229q0 39 26.5 65.5t63.5 26.5t61.5 -26t24.5 -66q0 -37 -25 -63.5t-61 -26.5h-2q-37 0 -62.5 26.5t-25.5 63.5z" />
<glyph unicode="&#xf0;" horiz-adv-x="780" d="M70 494q0 122 25 218.5t67 155.5t93 91t107 36q68 3 111 -30l4 6q-39 83 -121 176l-192 -107l-41 68l172 98q-26 31 -145 150l92 84q110 -99 172 -168l186 106l41 -69l-172 -99q99 -118 164 -258q82 -178 82 -444q1 -113 -18.5 -204t-52 -149.5t-76 -98t-88.5 -56 t-93 -16.5q-140 0 -228.5 131t-88.5 379zM225 498q0 -69 7 -131t24 -123.5t51.5 -98t83.5 -36.5h2q48 0 82 36.5t50 97t23 119.5t7 123q0 211 -31 297q-29 101 -131 101q-41 0 -72 -27.5t-49 -67.5t-29 -95t-14.5 -101t-3.5 -94z" />
<glyph unicode="&#xf1;" horiz-adv-x="829" d="M102 991h138l8 -119h4q33 62 92 99t135 37q109 0 174.5 -85t65.5 -257v-666h-158v639q0 235 -137 235q-52 0 -94 -42t-56 -119q-6 -38 -6 -88v-625h-157v735q0 68 -4 151.5t-5 104.5zM203 1137q-2 76 31 128t92 52q9 0 17.5 -1t17 -4t14 -4.5t15 -6.5t12 -6.5t13 -7.5 t11.5 -7q6 -3 20 -11.5t21.5 -12.5t18 -7.5t20.5 -3.5q26 0 39 16.5t14 59.5h80q0 -79 -31.5 -125.5t-95.5 -46.5q-36 0 -98 37l-15 9t-14.5 8.5t-12.5 6.5t-13.5 6t-12 3.5t-12.5 1.5q-43 0 -49 -84h-82z" />
<glyph unicode="&#xf2;" horiz-adv-x="784" d="M68 494q0 131 27.5 232.5t74.5 161.5t105 90t124 30q140 0 230 -132t90 -380q0 -137 -29.5 -240.5t-79 -160.5t-104.5 -84t-115 -27h-2q-141 0 -231 130t-90 380zM141 1382h160l158 -276h-105zM223 496q0 -69 7 -130.5t24.5 -123t53 -97.5t85.5 -36h2q48 0 82 37.5 t50 99.5t23 123t7 127t-7 126t-23.5 122t-51.5 99.5t-84 37.5q-50 0 -85.5 -37.5t-52 -99.5t-23.5 -122t-7 -126z" />
<glyph unicode="&#xf3;" horiz-adv-x="784" d="M68 494q0 131 27.5 232.5t74.5 161.5t105 90t124 30q140 0 230 -132t90 -380q0 -137 -29.5 -240.5t-79 -160.5t-104.5 -84t-115 -27h-2q-141 0 -231 130t-90 380zM223 496q0 -69 7 -130.5t24.5 -123t53 -97.5t85.5 -36h2q48 0 82 37.5t50 99.5t23 123t7 127t-7 126 t-23.5 122t-51.5 99.5t-84 37.5q-50 0 -85.5 -37.5t-52 -99.5t-23.5 -122t-7 -126zM326 1106l157 276h160l-213 -276h-104z" />
<glyph unicode="&#xf4;" horiz-adv-x="784" d="M68 494q0 131 27.5 232.5t74.5 161.5t105 90t124 30q140 0 230 -132t90 -380q0 -137 -29.5 -240.5t-79 -160.5t-104.5 -84t-115 -27h-2q-141 0 -231 130t-90 380zM188 1106l160 276h86l162 -276h-109l-94 174h-4l-94 -174h-107zM223 496q0 -69 7 -130.5t24.5 -123 t53 -97.5t85.5 -36h2q48 0 82 37.5t50 99.5t23 123t7 127t-7 126t-23.5 122t-51.5 99.5t-84 37.5q-50 0 -85.5 -37.5t-52 -99.5t-23.5 -122t-7 -126z" />
<glyph unicode="&#xf5;" horiz-adv-x="784" d="M68 494q0 131 27.5 232.5t74.5 161.5t105 90t124 30q140 0 230 -132t90 -380q0 -137 -29.5 -240.5t-79 -160.5t-104.5 -84t-115 -27h-2q-141 0 -231 130t-90 380zM174 1137q-2 76 31.5 128t93.5 52q10 0 20.5 -2t17.5 -4t17.5 -7t14.5 -7t15 -9t13 -8q8 -4 21.5 -12 t21.5 -12t19 -7.5t20 -3.5q25 0 37.5 17t13.5 59h80q0 -78 -31.5 -125t-93.5 -47q-38 0 -100 37l-15 9t-14.5 8.5t-12.5 6.5t-13.5 6t-12 3.5t-12.5 1.5q-43 0 -49 -84h-82zM223 496q0 -69 7 -130.5t24.5 -123t53 -97.5t85.5 -36h2q48 0 82 37.5t50 99.5t23 123t7 127 t-7 126t-23.5 122t-51.5 99.5t-84 37.5q-50 0 -85.5 -37.5t-52 -99.5t-23.5 -122t-7 -126z" />
<glyph unicode="&#xf6;" horiz-adv-x="784" d="M68 494q0 131 27.5 232.5t74.5 161.5t105 90t124 30q140 0 230 -132t90 -380q0 -137 -29.5 -240.5t-79 -160.5t-104.5 -84t-115 -27h-2q-141 0 -231 130t-90 380zM145 1229q0 39 27 65.5t64 26.5t61.5 -26t24.5 -66q0 -37 -25 -63.5t-61 -26.5h-3q-35 0 -61.5 26.5 t-26.5 63.5zM223 496q0 -69 7 -130.5t24.5 -123t53 -97.5t85.5 -36h2q48 0 82 37.5t50 99.5t23 123t7 127t-7 126t-23.5 122t-51.5 99.5t-84 37.5q-50 0 -85.5 -37.5t-52 -99.5t-23.5 -122t-7 -126zM461 1229q0 39 26.5 65.5t63.5 26.5t61.5 -26t24.5 -66q0 -37 -25 -63.5 t-61 -26.5h-2q-37 0 -62.5 26.5t-25.5 63.5z" />
<glyph unicode="&#xf7;" horiz-adv-x="1220" d="M80 492v110h1057v-110h-1057zM518 184q0 42 24.5 69.5t65.5 27.5q42 0 67 -27.5t25 -69.5t-24.5 -68t-67.5 -26h-2q-39 0 -63.5 26t-24.5 68zM520 907q0 42 24.5 69.5t65.5 27.5q42 0 67 -27.5t25 -69.5t-24.5 -68t-67.5 -26h-2q-39 0 -63.5 26t-24.5 68z" />
<glyph unicode="&#xf8;" horiz-adv-x="784" d="M68 494q0 131 27.5 232.5t74 161.5t103 90t120.5 30h2q89 0 166 -62l51 109l86 -45l-69 -140q90 -133 90 -374q0 -110 -20 -199.5t-52.5 -146.5t-76 -95.5t-87.5 -54.5t-90 -16q-94 0 -166 57l-53 -109l-80 52l64 131q-90 134 -90 379zM221 496q0 -130 27 -226l4 -2 l248 547q-26 66 -105 66q-43 0 -76 -27t-51 -67t-29 -95t-14.5 -101t-3.5 -95zM295 172q29 -63 100 -63q51 0 87.5 36t54 96.5t25 119.5t7.5 124q0 125 -24 226l-4 2z" />
<glyph unicode="&#xf9;" horiz-adv-x="815" d="M106 365v626h158v-604q0 -63 5.5 -109t20 -84t41 -57.5t66.5 -19.5q61 0 97.5 43t44.5 88q8 36 8 90v653h158v-721q0 -66 4 -167t4 -103h-138l-10 104h-4q-29 -46 -85 -83t-128 -37q-127 0 -184.5 95.5t-57.5 285.5zM176 1382h160l158 -276h-105z" />
<glyph unicode="&#xfa;" horiz-adv-x="815" d="M106 365v626h158v-604q0 -63 5.5 -109t20 -84t41 -57.5t66.5 -19.5q61 0 97.5 43t44.5 88q8 36 8 90v653h158v-721q0 -66 4 -167t4 -103h-138l-10 104h-4q-29 -46 -85 -83t-128 -37q-127 0 -184.5 95.5t-57.5 285.5zM344 1106l158 276h160l-213 -276h-105z" />
<glyph unicode="&#xfb;" horiz-adv-x="815" d="M106 365v626h158v-604q0 -63 5.5 -109t20 -84t41 -57.5t66.5 -19.5q61 0 97.5 43t44.5 88q8 36 8 90v653h158v-721q0 -66 4 -167t4 -103h-138l-10 104h-4q-29 -46 -85 -83t-128 -37q-127 0 -184.5 95.5t-57.5 285.5zM203 1106l159 276h87l161 -276h-108l-94 174h-5 l-94 -174h-106z" />
<glyph unicode="&#xfc;" horiz-adv-x="815" d="M106 365v626h158v-604q0 -63 5.5 -109t20 -84t41 -57.5t66.5 -19.5q61 0 97.5 43t44.5 88q8 36 8 90v653h158v-721q0 -66 4 -167t4 -103h-138l-10 104h-4q-29 -46 -85 -83t-128 -37q-127 0 -184.5 95.5t-57.5 285.5zM168 1229q0 40 26 66t64 26q35 0 59.5 -26.5 t24.5 -65.5q0 -37 -24 -63.5t-60 -26.5h-2q-37 0 -62.5 26.5t-25.5 63.5zM481 1229q0 39 26.5 65.5t63.5 26.5t61.5 -26t24.5 -66q0 -37 -25 -63.5t-61 -26.5h-2q-37 0 -62.5 26.5t-25.5 63.5z" />
<glyph unicode="&#xfd;" horiz-adv-x="708" d="M27 991h166l131 -569q5 -20 41 -205h4q9 52 43 203l116 571h156l-162 -637q-55 -226 -110.5 -381.5t-135.5 -257.5q-87 -109 -178 -151l-57 135q72 40 139 125q58 72 90 166q11 34 11 49q0 22 -5 37zM303 1106l156 276h162l-215 -276h-103z" />
<glyph unicode="&#xfe;" horiz-adv-x="817" d="M109 -393v1755h155v-494h4q67 140 205 140q123 0 200 -135.5t77 -374.5q0 -106 -17.5 -193.5t-46.5 -145.5t-67.5 -98.5t-80 -58.5t-85.5 -18q-128 0 -183 116h-4v-493h-157zM266 362q0 -50 8 -81q21 -93 62 -129.5t82 -36.5q47 0 81.5 30.5t54 85.5t28 120t8.5 145 q0 166 -42.5 271t-129.5 105q-53 0 -95.5 -54.5t-50.5 -125.5q-6 -25 -6 -76v-254z" />
<glyph unicode="&#xff;" horiz-adv-x="708" d="M27 991h166l131 -569q5 -20 41 -205h4q9 52 43 203l116 571h156l-162 -637q-55 -226 -110.5 -381.5t-135.5 -257.5q-87 -109 -178 -151l-57 135q72 40 139 125q58 72 90 166q11 34 11 49q0 22 -5 37zM115 1229q0 39 26.5 65.5t65.5 26.5q35 0 59.5 -26.5t24.5 -65.5 q0 -37 -24 -63.5t-60 -26.5h-2q-37 0 -63.5 26.5t-26.5 63.5zM430 1229q0 39 26.5 65.5t63.5 26.5t61.5 -26t24.5 -66q0 -37 -25 -63.5t-61 -26.5h-2q-37 0 -62.5 26.5t-25.5 63.5z" />
<glyph unicode="&#x152;" horiz-adv-x="1249" d="M66 682q0 177 38 315.5t105 224.5t155.5 130.5t192.5 44.5q43 0 78 -6q9 -1 24.5 -4t27.5 -4.5t22 -2.5h465v-137h-369v-455h346v-133h-346v-518h393v-137h-504q-29 -2 -78 -10q-40 -6 -75 -6q-105 0 -187.5 38t-135.5 102t-88 155t-49.5 190t-14.5 213zM229 692 q-1 -127 17 -226.5t47.5 -162.5t71.5 -104.5t86.5 -58.5t95.5 -17q69 0 100 16v1096q-39 22 -110 22q-43 0 -85 -17.5t-83 -60t-72 -105t-50 -161.5t-18 -221z" />
<glyph unicode="&#x153;" horiz-adv-x="1247" d="M68 494q0 128 27.5 229t74.5 161.5t106 92t125 31.5q85 0 154.5 -52t97.5 -151h4q37 95 104.5 149t153.5 54q92 0 156 -65.5t91.5 -162t27.5 -211.5q0 -19 -1 -47.5t-1 -36.5h-461q1 -109 19 -185t50.5 -116.5t71 -57.5t88.5 -17q67 0 172 41l29 -113q-86 -53 -231 -53 q-91 0 -167 54t-108 155h-4q-30 -104 -101 -156.5t-155 -52.5q-142 0 -232.5 131t-90.5 379zM225 496q0 -69 7.5 -130t25.5 -122.5t56 -98t92 -36.5q52 0 88.5 35.5t54 97.5t24.5 123t7 133q0 69 -7 129t-24.5 121t-55 97t-90.5 36h-2q-54 0 -91 -38t-54.5 -101.5t-24 -122 t-6.5 -123.5zM727 598h309q3 137 -39.5 211t-101.5 74q-50 0 -88 -42.5t-57.5 -106t-22.5 -136.5z" />
<glyph unicode="&#x178;" horiz-adv-x="806" d="M20 1380h166l123 -346q61 -167 103 -311h4q39 141 100 317l117 340h166l-318 -790v-590h-157v584zM164 1577q0 39 25 65.5t61 26.5q39 0 62.5 -26t23.5 -66q0 -42 -23.5 -67t-62.5 -25h-2q-36 0 -60 25.5t-24 66.5zM483 1577q0 40 24.5 66t61.5 26q38 0 61 -26t23 -66 q0 -41 -23 -66.5t-61 -25.5h-2q-36 0 -60 25.5t-24 66.5z" />
<glyph unicode="&#x2c6;" horiz-adv-x="614" d="M102 1106l160 276h88l162 -276h-111l-94 174h-4l-92 -174h-109z" />
<glyph unicode="&#x2dc;" horiz-adv-x="614" d="M88 1137q0 77 32.5 128.5t92.5 51.5q12 0 23.5 -2t23 -7t17.5 -8t19 -10.5t17 -9.5q6 -3 20 -11.5t21.5 -12.5t18 -7.5t20.5 -3.5q25 0 37.5 17t15.5 59h78q0 -79 -31 -125.5t-94 -46.5q-38 0 -100 37q-56 35 -80 35q-43 0 -49 -84h-82z" />
<glyph unicode="&#x2000;" horiz-adv-x="844" />
<glyph unicode="&#x2001;" horiz-adv-x="1688" />
<glyph unicode="&#x2002;" horiz-adv-x="844" />
<glyph unicode="&#x2003;" horiz-adv-x="1688" />
<glyph unicode="&#x2004;" horiz-adv-x="562" />
<glyph unicode="&#x2005;" horiz-adv-x="422" />
<glyph unicode="&#x2006;" horiz-adv-x="281" />
<glyph unicode="&#x2007;" horiz-adv-x="281" />
<glyph unicode="&#x2008;" horiz-adv-x="211" />
<glyph unicode="&#x2009;" horiz-adv-x="337" />
<glyph unicode="&#x200a;" horiz-adv-x="93" />
<glyph unicode="&#x2010;" horiz-adv-x="571" d="M61 473v123h449v-123h-449z" />
<glyph unicode="&#x2011;" horiz-adv-x="571" d="M61 473v123h449v-123h-449z" />
<glyph unicode="&#x2012;" horiz-adv-x="571" d="M61 473v123h449v-123h-449z" />
<glyph unicode="&#x2013;" horiz-adv-x="1024" d="M61 475v115h902v-115h-902z" />
<glyph unicode="&#x2014;" horiz-adv-x="2048" d="M61 475v115h1926v-115h-1926z" />
<glyph unicode="&#x2018;" horiz-adv-x="362" d="M45 915q31 118 86.5 258t97.5 213l95 13q-34 -92 -69.5 -227.5t-49.5 -235.5z" />
<glyph unicode="&#x2019;" horiz-adv-x="362" d="M41 915q34 92 69.5 227.5t49.5 235.5l159 21q-31 -118 -86.5 -258t-97.5 -213z" />
<glyph unicode="&#x201a;" horiz-adv-x="362" d="M41 -246q34 95 69.5 229.5t49.5 235.5l159 21q-31 -119 -86.5 -258t-97.5 -213z" />
<glyph unicode="&#x201c;" horiz-adv-x="628" d="M41 915q33 121 88.5 261t97.5 210l92 13q-34 -91 -68.5 -226.5t-49.5 -236.5zM313 915q33 119 88.5 259.5t96.5 211.5l94 13q-34 -92 -69.5 -227.5t-49.5 -235.5z" />
<glyph unicode="&#x201d;" horiz-adv-x="628" d="M39 915q33 95 68 229.5t49 233.5l161 21q-33 -119 -89 -259t-97 -212zM309 915q34 92 69.5 227.5t49.5 235.5l160 21q-31 -117 -87 -257.5t-98 -213.5z" />
<glyph unicode="&#x201e;" horiz-adv-x="628" d="M39 -246q34 98 68.5 232t48.5 233l161 21q-32 -119 -88 -258.5t-98 -212.5zM309 -246q34 95 69.5 229.5t49.5 235.5l160 21q-31 -118 -86.5 -257.5t-98.5 -213.5z" />
<glyph unicode="&#x2022;" horiz-adv-x="526" d="M68 700q-1 86 55.5 142.5t140.5 56.5q83 0 139 -56t56 -143q0 -85 -56 -140.5t-141 -55.5h-2q-81 0 -136.5 55.5t-55.5 140.5z" />
<glyph unicode="&#x2026;" horiz-adv-x="2048" d="M236 102q0 52 30.5 85.5t73.5 33.5q47 0 75.5 -32.5t28.5 -86.5q0 -55 -27.5 -86.5t-76.5 -31.5q-45 0 -74.5 32.5t-29.5 85.5zM918 102q0 52 30.5 85.5t73.5 33.5q47 0 75.5 -32.5t28.5 -86.5q0 -55 -27.5 -86.5t-76.5 -31.5q-45 0 -74.5 32.5t-29.5 85.5zM1599 102 q0 52 30.5 85.5t74.5 33.5q47 0 75.5 -32.5t28.5 -86.5q0 -55 -27.5 -86.5t-76.5 -31.5q-45 0 -75 32.5t-30 85.5z" />
<glyph unicode="&#x202f;" horiz-adv-x="337" />
<glyph unicode="&#x2039;" horiz-adv-x="430" d="M51 516l211 356h127l-213 -356l213 -356h-129z" />
<glyph unicode="&#x203a;" horiz-adv-x="430" d="M41 160l213 356l-213 356h127l213 -356l-209 -356h-131z" />
<glyph unicode="&#x205f;" horiz-adv-x="422" />
<glyph unicode="&#x20ac;" d="M29 543l22 63h84q-2 16 -2 70q0 8 1 27t1 28h-106l22 66h86q18 289 99.5 420t255.5 131q168 0 235 -97l6 -137h-35q-9 76 -54 118t-122 42q-110 0 -163.5 -116t-65.5 -361h364l-20 -66h-344q0 -9 -1 -29t-1 -28q0 -52 2 -68h301l-23 -63h-278q18 -486 231 -486 q70 0 116 39t56 121h37l-6 -133q-32 -47 -86 -72.5t-149 -25.5q-170 0 -254.5 136.5t-96.5 420.5h-112z" />
<glyph unicode="&#x2122;" horiz-adv-x="1353" d="M35 1288v92h461v-92h-177v-723h-106v723h-178zM532 565l60 815h137l139 -487q21 -76 39 -154h4q14 62 39 156l142 485h131l61 -815h-106l-31 529q-2 31 -0.5 88.5t0.5 81.5h-6q-35 -146 -47 -185l-158 -508h-70l-153 525q-12 36 -23.5 93.5t-15.5 74.5h-6 q-2 -33 -2.5 -88.5t-1.5 -75.5l-27 -535h-105z" />
<glyph unicode="&#xe000;" horiz-adv-x="993" d="M0 0v993h993v-993h-993z" />
<glyph unicode="&#xfb01;" horiz-adv-x="856" d="M18 870v121h125v66q0 71 18.5 134t58.5 119.5t113 90t171 33.5q117 0 194 -48l-34 -122q-85 39 -164 39q-112 0 -155.5 -68.5t-43.5 -194.5v-49h444v-991h-157v870h-287v-870h-158v870h-125z" />
<glyph unicode="&#xfb02;" horiz-adv-x="856" d="M18 870v121h125v53q0 86 27.5 167.5t85.5 136.5q92 86 252 86q63 0 129.5 -15t110.5 -37v-1382h-158v1284q-51 21 -109 21q-40 0 -71.5 -13.5t-51.5 -36.5t-33 -55.5t-18.5 -68t-5.5 -76.5v-64h170v-121h-170v-870h-158v870h-125z" />
<hkern u1="&#x20;" u2="&#x201e;" k="227" />
<hkern u1="&#x20;" u2="&#x201c;" k="168" />
<hkern u1="&#x20;" u2="&#x201a;" k="195" />
<hkern u1="&#x20;" u2="&#x2018;" k="127" />
<hkern u1="&#x20;" u2="Y" k="72" />
<hkern u1="&#x20;" u2="W" k="72" />
<hkern u1="&#x20;" u2="V" k="72" />
<hkern u1="&#x20;" u2="T" k="72" />
<hkern u1="&#x28;" u2="Y" k="-86" />
<hkern u1="&#x28;" u2="W" k="-74" />
<hkern u1="&#x28;" u2="V" k="-74" />
<hkern u1="&#x28;" u2="T" k="-74" />
<hkern u1="&#x28;" u2="J" k="-18" />
<hkern u1="&#x2c;" u2="&#x201d;" k="-18" />
<hkern u1="&#x2c;" u2="&#x2019;" k="-18" />
<hkern u1="&#x2c;" u2="&#x20;" k="123" />
<hkern u1="&#x2e;" u2="&#x2019;" k="121" />
<hkern u1="&#x2e;" u2="&#x20;" k="147" />
<hkern u1="&#x3a;" u2="&#x20;" k="135" />
<hkern u1="&#x3b;" u2="&#x20;" k="111" />
<hkern u1="A" u2="&#x201d;" k="141" />
<hkern u1="A" u2="&#x2019;" k="141" />
<hkern u1="A" u2="z" k="-20" />
<hkern u1="A" u2="y" k="51" />
<hkern u1="A" u2="w" k="57" />
<hkern u1="A" u2="v" k="66" />
<hkern u1="A" u2="u" k="12" />
<hkern u1="A" u2="t" k="25" />
<hkern u1="A" u2="q" k="12" />
<hkern u1="A" u2="o" k="16" />
<hkern u1="A" u2="g" k="18" />
<hkern u1="A" u2="f" k="25" />
<hkern u1="A" u2="e" k="18" />
<hkern u1="A" u2="d" k="23" />
<hkern u1="A" u2="c" k="20" />
<hkern u1="A" u2="b" k="12" />
<hkern u1="A" u2="Y" k="127" />
<hkern u1="A" u2="W" k="100" />
<hkern u1="A" u2="V" k="100" />
<hkern u1="A" u2="U" k="35" />
<hkern u1="A" u2="T" k="117" />
<hkern u1="A" u2="Q" k="35" />
<hkern u1="A" u2="O" k="35" />
<hkern u1="A" u2="G" k="35" />
<hkern u1="A" u2="C" k="35" />
<hkern u1="B" u2="o" k="-18" />
<hkern u1="B" u2="e" k="-16" />
<hkern u1="B" u2="a" k="-12" />
<hkern u1="B" u2="W" k="20" />
<hkern u1="B" u2="V" k="12" />
<hkern u1="B" u2="T" k="35" />
<hkern u1="B" u2="&#x2e;" k="41" />
<hkern u1="B" u2="&#x2c;" k="37" />
<hkern u1="C" u2="z" k="-27" />
<hkern u1="C" u2="y" k="72" />
<hkern u1="C" u2="u" k="35" />
<hkern u1="C" u2="o" k="47" />
<hkern u1="C" u2="e" k="43" />
<hkern u1="C" u2="a" k="20" />
<hkern u1="C" u2="Q" k="59" />
<hkern u1="C" u2="O" k="59" />
<hkern u1="C" u2="G" k="59" />
<hkern u1="C" u2="C" k="59" />
<hkern u1="C" u2="A" k="-12" />
<hkern u1="D" u2="&#x201d;" k="-12" />
<hkern u1="D" u2="&#x2019;" k="-12" />
<hkern u1="D" u2="y" k="-33" />
<hkern u1="D" u2="o" k="-16" />
<hkern u1="D" u2="e" k="-16" />
<hkern u1="D" u2="Y" k="55" />
<hkern u1="D" u2="W" k="25" />
<hkern u1="D" u2="V" k="23" />
<hkern u1="D" u2="&#x2e;" k="82" />
<hkern u1="D" u2="&#x2c;" k="92" />
<hkern u1="E" u2="y" k="37" />
<hkern u1="E" u2="w" k="29" />
<hkern u1="E" u2="v" k="33" />
<hkern u1="E" u2="u" k="29" />
<hkern u1="E" u2="t" k="27" />
<hkern u1="E" u2="q" k="29" />
<hkern u1="E" u2="p" k="14" />
<hkern u1="E" u2="o" k="27" />
<hkern u1="E" u2="i" k="12" />
<hkern u1="E" u2="h" k="20" />
<hkern u1="E" u2="g" k="27" />
<hkern u1="E" u2="f" k="20" />
<hkern u1="E" u2="e" k="27" />
<hkern u1="E" u2="d" k="27" />
<hkern u1="E" u2="c" k="29" />
<hkern u1="E" u2="b" k="16" />
<hkern u1="E" u2="Y" k="-25" />
<hkern u1="E" u2="W" k="-18" />
<hkern u1="E" u2="V" k="-18" />
<hkern u1="E" u2="&#x2c;" k="31" />
<hkern u1="F" u2="y" k="29" />
<hkern u1="F" u2="u" k="33" />
<hkern u1="F" u2="r" k="29" />
<hkern u1="F" u2="o" k="33" />
<hkern u1="F" u2="l" k="20" />
<hkern u1="F" u2="i" k="23" />
<hkern u1="F" u2="e" k="39" />
<hkern u1="F" u2="a" k="76" />
<hkern u1="F" u2="A" k="96" />
<hkern u1="F" u2="&#x3b;" k="45" />
<hkern u1="F" u2="&#x3a;" k="20" />
<hkern u1="F" u2="&#x2e;" k="193" />
<hkern u1="F" u2="&#x2c;" k="217" />
<hkern u1="G" u2="&#x201d;" k="43" />
<hkern u1="G" u2="&#x2019;" k="43" />
<hkern u1="G" u2="y" k="18" />
<hkern u1="G" u2="i" k="-12" />
<hkern u1="I" u2="y" k="14" />
<hkern u1="I" u2="v" k="12" />
<hkern u1="J" u2="&#x7d;" k="-18" />
<hkern u1="J" u2="]" k="-18" />
<hkern u1="J" u2="&#x29;" k="-18" />
<hkern u1="K" u2="y" k="74" />
<hkern u1="K" u2="w" k="72" />
<hkern u1="K" u2="v" k="72" />
<hkern u1="K" u2="u" k="27" />
<hkern u1="K" u2="o" k="23" />
<hkern u1="K" u2="e" k="27" />
<hkern u1="K" u2="a" k="-16" />
<hkern u1="K" u2="Q" k="57" />
<hkern u1="K" u2="O" k="57" />
<hkern u1="K" u2="G" k="57" />
<hkern u1="K" u2="C" k="57" />
<hkern u1="K" u2="A" k="-14" />
<hkern u1="L" u2="&#x201d;" k="162" />
<hkern u1="L" u2="&#x2019;" k="162" />
<hkern u1="L" u2="y" k="49" />
<hkern u1="L" u2="w" k="90" />
<hkern u1="L" u2="u" k="33" />
<hkern u1="L" u2="o" k="33" />
<hkern u1="L" u2="e" k="39" />
<hkern u1="L" u2="Y" k="178" />
<hkern u1="L" u2="W" k="123" />
<hkern u1="L" u2="V" k="137" />
<hkern u1="L" u2="U" k="63" />
<hkern u1="L" u2="T" k="154" />
<hkern u1="L" u2="Q" k="86" />
<hkern u1="L" u2="O" k="86" />
<hkern u1="L" u2="G" k="86" />
<hkern u1="L" u2="C" k="86" />
<hkern u1="O" u2="&#x201d;" k="-12" />
<hkern u1="O" u2="&#x2019;" k="-12" />
<hkern u1="O" u2="z" k="14" />
<hkern u1="O" u2="y" k="-18" />
<hkern u1="O" u2="w" k="-25" />
<hkern u1="O" u2="v" k="-27" />
<hkern u1="O" u2="t" k="-16" />
<hkern u1="O" u2="q" k="-16" />
<hkern u1="O" u2="o" k="-16" />
<hkern u1="O" u2="g" k="-16" />
<hkern u1="O" u2="f" k="-18" />
<hkern u1="O" u2="e" k="-16" />
<hkern u1="O" u2="d" k="-16" />
<hkern u1="O" u2="c" k="-16" />
<hkern u1="O" u2="Y" k="39" />
<hkern u1="O" u2="X" k="37" />
<hkern u1="O" u2="W" k="16" />
<hkern u1="O" u2="V" k="20" />
<hkern u1="O" u2="T" k="63" />
<hkern u1="O" u2="A" k="31" />
<hkern u1="O" u2="&#x2e;" k="61" />
<hkern u1="O" u2="&#x2c;" k="86" />
<hkern u1="P" u2="&#x201d;" k="-55" />
<hkern u1="P" u2="&#x2019;" k="-55" />
<hkern u1="P" u2="y" k="-14" />
<hkern u1="P" u2="u" k="18" />
<hkern u1="P" u2="t" k="-20" />
<hkern u1="P" u2="s" k="18" />
<hkern u1="P" u2="r" k="12" />
<hkern u1="P" u2="o" k="53" />
<hkern u1="P" u2="n" k="18" />
<hkern u1="P" u2="e" k="51" />
<hkern u1="P" u2="a" k="51" />
<hkern u1="P" u2="A" k="111" />
<hkern u1="P" u2="&#x3b;" k="31" />
<hkern u1="P" u2="&#x2e;" k="283" />
<hkern u1="P" u2="&#x2c;" k="319" />
<hkern u1="Q" u2="&#x201d;" k="-12" />
<hkern u1="Q" u2="&#x2019;" k="-12" />
<hkern u1="Q" u2="Y" k="49" />
<hkern u1="Q" u2="X" k="23" />
<hkern u1="Q" u2="W" k="18" />
<hkern u1="Q" u2="V" k="25" />
<hkern u1="Q" u2="T" k="49" />
<hkern u1="R" u2="&#x201d;" k="-12" />
<hkern u1="R" u2="&#x2019;" k="-12" />
<hkern u1="R" u2="t" k="-20" />
<hkern u1="R" u2="i" k="-18" />
<hkern u1="R" u2="h" k="-14" />
<hkern u1="R" u2="a" k="-14" />
<hkern u1="R" u2="Y" k="31" />
<hkern u1="R" u2="X" k="-27" />
<hkern u1="R" u2="T" k="37" />
<hkern u1="R" u2="A" k="-12" />
<hkern u1="S" u2="&#x201d;" k="14" />
<hkern u1="S" u2="&#x2019;" k="14" />
<hkern u1="S" u2="y" k="20" />
<hkern u1="S" u2="w" k="20" />
<hkern u1="S" u2="v" k="29" />
<hkern u1="S" u2="q" k="-18" />
<hkern u1="S" u2="e" k="-18" />
<hkern u1="S" u2="a" k="-33" />
<hkern u1="T" u2="&#x201d;" k="-25" />
<hkern u1="T" u2="&#x2019;" k="-25" />
<hkern u1="T" u2="&#x7d;" k="-68" />
<hkern u1="T" u2="z" k="115" />
<hkern u1="T" u2="y" k="113" />
<hkern u1="T" u2="w" k="109" />
<hkern u1="T" u2="u" k="111" />
<hkern u1="T" u2="s" k="123" />
<hkern u1="T" u2="r" k="111" />
<hkern u1="T" u2="o" k="125" />
<hkern u1="T" u2="m" k="111" />
<hkern u1="T" u2="i" k="20" />
<hkern u1="T" u2="h" k="27" />
<hkern u1="T" u2="e" k="125" />
<hkern u1="T" u2="a" k="133" />
<hkern u1="T" u2="]" k="-68" />
<hkern u1="T" u2="Y" k="-41" />
<hkern u1="T" u2="X" k="-27" />
<hkern u1="T" u2="W" k="-29" />
<hkern u1="T" u2="V" k="-29" />
<hkern u1="T" u2="T" k="-23" />
<hkern u1="T" u2="S" k="27" />
<hkern u1="T" u2="Q" k="66" />
<hkern u1="T" u2="O" k="66" />
<hkern u1="T" u2="G" k="66" />
<hkern u1="T" u2="C" k="66" />
<hkern u1="T" u2="A" k="92" />
<hkern u1="T" u2="&#x3b;" k="102" />
<hkern u1="T" u2="&#x3a;" k="78" />
<hkern u1="T" u2="&#x2e;" k="152" />
<hkern u1="T" u2="&#x2c;" k="176" />
<hkern u1="T" u2="&#x29;" k="-74" />
<hkern u1="U" u2="z" k="29" />
<hkern u1="U" u2="y" k="14" />
<hkern u1="U" u2="x" k="23" />
<hkern u1="U" u2="v" k="14" />
<hkern u1="U" u2="s" k="18" />
<hkern u1="U" u2="a" k="12" />
<hkern u1="U" u2="A" k="25" />
<hkern u1="V" u2="&#x7d;" k="-68" />
<hkern u1="V" u2="y" k="37" />
<hkern u1="V" u2="u" k="66" />
<hkern u1="V" u2="r" k="57" />
<hkern u1="V" u2="o" k="84" />
<hkern u1="V" u2="e" k="84" />
<hkern u1="V" u2="a" k="84" />
<hkern u1="V" u2="]" k="-68" />
<hkern u1="V" u2="Q" k="31" />
<hkern u1="V" u2="O" k="31" />
<hkern u1="V" u2="G" k="31" />
<hkern u1="V" u2="C" k="31" />
<hkern u1="V" u2="A" k="94" />
<hkern u1="V" u2="&#x3b;" k="74" />
<hkern u1="V" u2="&#x3a;" k="49" />
<hkern u1="V" u2="&#x2e;" k="180" />
<hkern u1="V" u2="&#x2c;" k="205" />
<hkern u1="V" u2="&#x29;" k="-74" />
<hkern u1="W" u2="&#x7d;" k="-68" />
<hkern u1="W" u2="y" k="33" />
<hkern u1="W" u2="u" k="57" />
<hkern u1="W" u2="t" k="18" />
<hkern u1="W" u2="r" k="51" />
<hkern u1="W" u2="o" k="82" />
<hkern u1="W" u2="m" k="51" />
<hkern u1="W" u2="i" k="29" />
<hkern u1="W" u2="h" k="14" />
<hkern u1="W" u2="e" k="76" />
<hkern u1="W" u2="d" k="76" />
<hkern u1="W" u2="a" k="82" />
<hkern u1="W" u2="]" k="-68" />
<hkern u1="W" u2="T" k="-25" />
<hkern u1="W" u2="Q" k="14" />
<hkern u1="W" u2="O" k="14" />
<hkern u1="W" u2="G" k="14" />
<hkern u1="W" u2="C" k="14" />
<hkern u1="W" u2="A" k="86" />
<hkern u1="W" u2="&#x3b;" k="59" />
<hkern u1="W" u2="&#x3a;" k="35" />
<hkern u1="W" u2="&#x2e;" k="133" />
<hkern u1="W" u2="&#x2c;" k="158" />
<hkern u1="W" u2="&#x29;" k="-74" />
<hkern u1="X" u2="y" k="49" />
<hkern u1="X" u2="u" k="25" />
<hkern u1="X" u2="e" k="27" />
<hkern u1="X" u2="Y" k="-25" />
<hkern u1="X" u2="X" k="-23" />
<hkern u1="X" u2="W" k="-25" />
<hkern u1="X" u2="V" k="-27" />
<hkern u1="X" u2="T" k="-20" />
<hkern u1="X" u2="Q" k="43" />
<hkern u1="X" u2="O" k="43" />
<hkern u1="X" u2="G" k="43" />
<hkern u1="X" u2="C" k="43" />
<hkern u1="X" u2="A" k="-14" />
<hkern u1="Y" u2="&#x201d;" k="-12" />
<hkern u1="Y" u2="&#x2019;" k="-12" />
<hkern u1="Y" u2="&#x7d;" k="-80" />
<hkern u1="Y" u2="v" k="90" />
<hkern u1="Y" u2="u" k="109" />
<hkern u1="Y" u2="t" k="59" />
<hkern u1="Y" u2="q" k="147" />
<hkern u1="Y" u2="o" k="154" />
<hkern u1="Y" u2="l" k="16" />
<hkern u1="Y" u2="i" k="31" />
<hkern u1="Y" u2="e" k="147" />
<hkern u1="Y" u2="d" k="152" />
<hkern u1="Y" u2="a" k="139" />
<hkern u1="Y" u2="]" k="-80" />
<hkern u1="Y" u2="Y" k="-61" />
<hkern u1="Y" u2="X" k="-35" />
<hkern u1="Y" u2="W" k="-51" />
<hkern u1="Y" u2="V" k="-57" />
<hkern u1="Y" u2="T" k="-37" />
<hkern u1="Y" u2="S" k="20" />
<hkern u1="Y" u2="Q" k="57" />
<hkern u1="Y" u2="O" k="57" />
<hkern u1="Y" u2="G" k="57" />
<hkern u1="Y" u2="C" k="57" />
<hkern u1="Y" u2="A" k="133" />
<hkern u1="Y" u2="&#x3b;" k="123" />
<hkern u1="Y" u2="&#x3a;" k="98" />
<hkern u1="Y" u2="&#x2e;" k="180" />
<hkern u1="Y" u2="&#x2c;" k="205" />
<hkern u1="Y" u2="&#x29;" k="-86" />
<hkern u1="Z" u2="y" k="20" />
<hkern u1="Z" u2="w" k="45" />
<hkern u1="Z" u2="u" k="23" />
<hkern u1="Z" u2="o" k="43" />
<hkern u1="Z" u2="e" k="37" />
<hkern u1="Z" u2="a" k="12" />
<hkern u1="Z" u2="Q" k="33" />
<hkern u1="Z" u2="O" k="33" />
<hkern u1="Z" u2="G" k="33" />
<hkern u1="Z" u2="C" k="33" />
<hkern u1="Z" u2="A" k="-18" />
<hkern u1="[" u2="Y" k="-86" />
<hkern u1="[" u2="W" k="-68" />
<hkern u1="[" u2="V" k="-68" />
<hkern u1="[" u2="T" k="-68" />
<hkern u1="[" u2="J" k="-18" />
<hkern u1="a" u2="&#x201d;" k="43" />
<hkern u1="a" u2="&#x2019;" k="43" />
<hkern u1="a" u2="y" k="25" />
<hkern u1="a" u2="w" k="18" />
<hkern u1="a" u2="v" k="20" />
<hkern u1="a" u2="t" k="18" />
<hkern u1="b" u2="&#x201d;" k="43" />
<hkern u1="b" u2="&#x2019;" k="43" />
<hkern u1="b" u2="y" k="12" />
<hkern u1="b" u2="v" k="14" />
<hkern u1="b" u2="&#x2e;" k="70" />
<hkern u1="b" u2="&#x2c;" k="94" />
<hkern u1="c" u2="&#x201d;" k="-37" />
<hkern u1="c" u2="&#x2019;" k="-37" />
<hkern u1="c" u2="y" k="-41" />
<hkern u1="c" u2="t" k="-31" />
<hkern u1="c" u2="o" k="12" />
<hkern u1="c" u2="e" k="12" />
<hkern u1="c" u2="d" k="12" />
<hkern u1="c" u2="&#x2c;" k="31" />
<hkern u1="d" u2="&#x2e;" k="49" />
<hkern u1="d" u2="&#x2c;" k="59" />
<hkern u1="e" u2="&#x201d;" k="43" />
<hkern u1="e" u2="&#x2019;" k="43" />
<hkern u1="e" u2="z" k="14" />
<hkern u1="e" u2="x" k="14" />
<hkern u1="e" u2="&#x2e;" k="20" />
<hkern u1="e" u2="&#x2c;" k="45" />
<hkern u1="f" u2="&#x201d;" k="-127" />
<hkern u1="f" u2="&#x2019;" k="-127" />
<hkern u1="f" u2="&#x7d;" k="-143" />
<hkern u1="f" u2="]" k="-143" />
<hkern u1="f" u2="&#x3b;" k="-53" />
<hkern u1="f" u2="&#x3a;" k="-68" />
<hkern u1="f" u2="&#x2e;" k="72" />
<hkern u1="f" u2="&#x2c;" k="96" />
<hkern u1="f" u2="&#x29;" k="-143" />
<hkern u1="f" u2="&#x27;" k="-25" />
<hkern u1="f" u2="&#x22;" k="-25" />
<hkern u1="g" u2="&#x201d;" k="37" />
<hkern u1="g" u2="&#x2019;" k="37" />
<hkern u1="g" u2="&#x2e;" k="49" />
<hkern u1="g" u2="&#x2c;" k="47" />
<hkern u1="h" u2="&#x201d;" k="43" />
<hkern u1="h" u2="&#x2019;" k="43" />
<hkern u1="h" u2="y" k="20" />
<hkern u1="h" u2="v" k="18" />
<hkern u1="h" u2="t" k="12" />
<hkern u1="j" u2="&#x2c;" k="31" />
<hkern u1="k" u2="&#x201d;" k="-12" />
<hkern u1="k" u2="&#x2019;" k="-12" />
<hkern u1="k" u2="o" k="31" />
<hkern u1="k" u2="g" k="31" />
<hkern u1="k" u2="e" k="31" />
<hkern u1="m" u2="&#x201d;" k="43" />
<hkern u1="m" u2="&#x2019;" k="43" />
<hkern u1="m" u2="y" k="20" />
<hkern u1="m" u2="v" k="18" />
<hkern u1="m" u2="t" k="12" />
<hkern u1="n" u2="&#x201d;" k="43" />
<hkern u1="n" u2="&#x2019;" k="43" />
<hkern u1="n" u2="y" k="20" />
<hkern u1="n" u2="v" k="18" />
<hkern u1="n" u2="t" k="12" />
<hkern u1="o" u2="&#x201d;" k="43" />
<hkern u1="o" u2="&#x2019;" k="43" />
<hkern u1="o" u2="z" k="23" />
<hkern u1="o" u2="y" k="18" />
<hkern u1="o" u2="x" k="31" />
<hkern u1="o" u2="w" k="14" />
<hkern u1="o" u2="v" k="20" />
<hkern u1="o" u2="&#x2e;" k="70" />
<hkern u1="o" u2="&#x2c;" k="80" />
<hkern u1="p" u2="&#x201d;" k="43" />
<hkern u1="p" u2="&#x2019;" k="43" />
<hkern u1="p" u2="z" k="18" />
<hkern u1="p" u2="y" k="14" />
<hkern u1="p" u2="w" k="14" />
<hkern u1="p" u2="&#x2e;" k="70" />
<hkern u1="p" u2="&#x2c;" k="80" />
<hkern u1="q" u2="&#x201d;" k="31" />
<hkern u1="q" u2="&#x2019;" k="31" />
<hkern u1="q" u2="&#x2e;" k="49" />
<hkern u1="q" u2="&#x2c;" k="16" />
<hkern u1="r" u2="&#x201d;" k="-31" />
<hkern u1="r" u2="&#x2019;" k="-31" />
<hkern u1="r" u2="z" k="-18" />
<hkern u1="r" u2="y" k="-47" />
<hkern u1="r" u2="x" k="-43" />
<hkern u1="r" u2="w" k="-53" />
<hkern u1="r" u2="v" k="-53" />
<hkern u1="r" u2="t" k="-49" />
<hkern u1="r" u2="q" k="47" />
<hkern u1="r" u2="o" k="29" />
<hkern u1="r" u2="g" k="29" />
<hkern u1="r" u2="f" k="-53" />
<hkern u1="r" u2="e" k="29" />
<hkern u1="r" u2="d" k="29" />
<hkern u1="r" u2="c" k="29" />
<hkern u1="r" u2="a" k="12" />
<hkern u1="r" u2="&#x3a;" k="-23" />
<hkern u1="r" u2="&#x2e;" k="111" />
<hkern u1="r" u2="&#x2c;" k="135" />
<hkern u1="s" u2="&#x201d;" k="16" />
<hkern u1="s" u2="&#x2019;" k="16" />
<hkern u1="s" u2="&#x2c;" k="31" />
<hkern u1="t" u2="&#x201d;" k="-18" />
<hkern u1="t" u2="&#x2019;" k="-18" />
<hkern u1="t" u2="y" k="-23" />
<hkern u1="t" u2="w" k="-20" />
<hkern u1="t" u2="o" k="18" />
<hkern u1="t" u2="g" k="18" />
<hkern u1="t" u2="e" k="18" />
<hkern u1="t" u2="d" k="18" />
<hkern u1="t" u2="c" k="18" />
<hkern u1="t" u2="&#x2c;" k="31" />
<hkern u1="u" u2="&#x201d;" k="37" />
<hkern u1="u" u2="&#x2019;" k="37" />
<hkern u1="u" u2="&#x2c;" k="31" />
<hkern u1="v" u2="&#x201d;" k="-37" />
<hkern u1="v" u2="&#x2019;" k="-37" />
<hkern u1="v" u2="y" k="-33" />
<hkern u1="v" u2="w" k="-33" />
<hkern u1="v" u2="q" k="14" />
<hkern u1="v" u2="o" k="20" />
<hkern u1="v" u2="e" k="20" />
<hkern u1="v" u2="d" k="20" />
<hkern u1="v" u2="c" k="20" />
<hkern u1="v" u2="a" k="29" />
<hkern u1="v" u2="&#x3a;" k="-23" />
<hkern u1="v" u2="&#x2e;" k="104" />
<hkern u1="v" u2="&#x2c;" k="129" />
<hkern u1="w" u2="&#x201d;" k="-39" />
<hkern u1="w" u2="&#x2019;" k="-39" />
<hkern u1="w" u2="y" k="-45" />
<hkern u1="w" u2="v" k="-41" />
<hkern u1="w" u2="q" k="29" />
<hkern u1="w" u2="o" k="27" />
<hkern u1="w" u2="e" k="31" />
<hkern u1="w" u2="d" k="29" />
<hkern u1="w" u2="c" k="31" />
<hkern u1="w" u2="a" k="18" />
<hkern u1="w" u2="&#x3a;" k="-23" />
<hkern u1="w" u2="&#x2e;" k="90" />
<hkern u1="w" u2="&#x2c;" k="115" />
<hkern u1="x" u2="&#x201d;" k="-23" />
<hkern u1="x" u2="&#x2019;" k="-23" />
<hkern u1="x" u2="y" k="-45" />
<hkern u1="x" u2="w" k="-39" />
<hkern u1="x" u2="v" k="-39" />
<hkern u1="x" u2="t" k="-31" />
<hkern u1="x" u2="q" k="29" />
<hkern u1="x" u2="o" k="29" />
<hkern u1="x" u2="e" k="29" />
<hkern u1="x" u2="d" k="29" />
<hkern u1="x" u2="c" k="29" />
<hkern u1="y" u2="&#x201d;" k="-37" />
<hkern u1="y" u2="&#x2019;" k="-37" />
<hkern u1="y" u2="w" k="-41" />
<hkern u1="y" u2="v" k="-35" />
<hkern u1="y" u2="q" k="23" />
<hkern u1="y" u2="o" k="23" />
<hkern u1="y" u2="g" k="23" />
<hkern u1="y" u2="e" k="23" />
<hkern u1="y" u2="d" k="23" />
<hkern u1="y" u2="c" k="23" />
<hkern u1="y" u2="a" k="31" />
<hkern u1="y" u2="&#x3b;" k="23" />
<hkern u1="y" u2="&#x2e;" k="96" />
<hkern u1="y" u2="&#x2c;" k="121" />
<hkern u1="z" u2="&#x201d;" k="-33" />
<hkern u1="z" u2="&#x2019;" k="-33" />
<hkern u1="z" u2="y" k="-29" />
<hkern u1="z" u2="o" k="25" />
<hkern u1="z" u2="e" k="25" />
<hkern u1="z" u2="d" k="25" />
<hkern u1="z" u2="c" k="25" />
<hkern u1="&#x7b;" u2="Y" k="-86" />
<hkern u1="&#x7b;" u2="W" k="-68" />
<hkern u1="&#x7b;" u2="V" k="-68" />
<hkern u1="&#x7b;" u2="T" k="-68" />
<hkern u1="&#x7b;" u2="J" k="-18" />
<hkern u1="&#x2018;" u2="&#x2018;" k="90" />
<hkern u1="&#x2018;" u2="z" k="29" />
<hkern u1="&#x2018;" u2="u" k="63" />
<hkern u1="&#x2018;" u2="s" k="74" />
<hkern u1="&#x2018;" u2="r" k="43" />
<hkern u1="&#x2018;" u2="q" k="72" />
<hkern u1="&#x2018;" u2="p" k="57" />
<hkern u1="&#x2018;" u2="o" k="100" />
<hkern u1="&#x2018;" u2="n" k="49" />
<hkern u1="&#x2018;" u2="m" k="49" />
<hkern u1="&#x2018;" u2="g" k="100" />
<hkern u1="&#x2018;" u2="f" k="43" />
<hkern u1="&#x2018;" u2="e" k="100" />
<hkern u1="&#x2018;" u2="d" k="100" />
<hkern u1="&#x2018;" u2="c" k="100" />
<hkern u1="&#x2018;" u2="a" k="68" />
<hkern u1="&#x2018;" u2="Y" k="-29" />
<hkern u1="&#x2018;" u2="X" k="-23" />
<hkern u1="&#x2018;" u2="W" k="-12" />
<hkern u1="&#x2018;" u2="V" k="-23" />
<hkern u1="&#x2018;" u2="T" k="-25" />
<hkern u1="&#x2018;" u2="Q" k="25" />
<hkern u1="&#x2018;" u2="O" k="25" />
<hkern u1="&#x2018;" u2="J" k="127" />
<hkern u1="&#x2018;" u2="G" k="25" />
<hkern u1="&#x2018;" u2="C" k="25" />
<hkern u1="&#x2018;" u2="A" k="131" />
<hkern u1="&#x2019;" u2="&#x2019;" k="90" />
<hkern u1="&#x2019;" u2="t" k="35" />
<hkern u1="&#x2019;" u2="s" k="147" />
<hkern u1="&#x2019;" u2="r" k="102" />
<hkern u1="&#x2019;" u2="m" k="102" />
<hkern u1="&#x2019;" u2="d" k="162" />
<hkern u1="&#x2019;" u2="&#x2e;" k="289" />
<hkern u1="&#x2019;" u2="&#x2c;" k="295" />
<hkern u1="&#x2019;" u2="&#x20;" k="147" />
<hkern u1="&#x201c;" u2="z" k="29" />
<hkern u1="&#x201c;" u2="u" k="57" />
<hkern u1="&#x201c;" u2="s" k="74" />
<hkern u1="&#x201c;" u2="r" k="43" />
<hkern u1="&#x201c;" u2="q" k="72" />
<hkern u1="&#x201c;" u2="p" k="57" />
<hkern u1="&#x201c;" u2="o" k="100" />
<hkern u1="&#x201c;" u2="n" k="49" />
<hkern u1="&#x201c;" u2="m" k="49" />
<hkern u1="&#x201c;" u2="g" k="100" />
<hkern u1="&#x201c;" u2="f" k="43" />
<hkern u1="&#x201c;" u2="e" k="100" />
<hkern u1="&#x201c;" u2="d" k="100" />
<hkern u1="&#x201c;" u2="c" k="100" />
<hkern u1="&#x201c;" u2="a" k="68" />
<hkern u1="&#x201c;" u2="Y" k="-29" />
<hkern u1="&#x201c;" u2="X" k="-23" />
<hkern u1="&#x201c;" u2="W" k="-12" />
<hkern u1="&#x201c;" u2="V" k="-23" />
<hkern u1="&#x201c;" u2="T" k="-25" />
<hkern u1="&#x201c;" u2="Q" k="25" />
<hkern u1="&#x201c;" u2="O" k="25" />
<hkern u1="&#x201c;" u2="J" k="127" />
<hkern u1="&#x201c;" u2="G" k="25" />
<hkern u1="&#x201c;" u2="C" k="25" />
<hkern u1="&#x201c;" u2="A" k="137" />
<hkern u1="&#x201d;" u2="&#x2e;" k="477" />
<hkern u1="&#x201d;" u2="&#x2c;" k="473" />
<hkern u1="&#x201d;" u2="&#x20;" k="147" />
</font>
</defs></svg> 