<?xml version="1.0" encoding="utf-8"?>
<!-- Generator: Adobe Illustrator 18.1.0, SVG Export Plug-In . SVG Version: 6.00 Build 0)  -->
<svg version="1.1" id="Layer_1" xmlns="http://www.w3.org/2000/svg" xmlns:xlink="http://www.w3.org/1999/xlink" x="0px" y="0px"
	 viewBox="0 0 984.9 714.2" enable-background="new 0 0 984.9 714.2" xml:space="preserve">
<g id="_x36_7M2J9.tif">
	<g>
		<g>
			<path d="M766,714.2c-156.7,0-313.3,0-470,0c-1.8-0.2-3.6-0.5-5.4-0.6c-16.8-0.1-33.7,0-50.5-0.2c-3.2,0-6.6-0.7-9.6-1.9
				c-74.8-30-149.5-60.2-224.2-90.4c-1.9-0.8-4.7-1.9-4.9-3.3c-0.6-3.5-1.6-8.9,0.3-10.6c3.9-3.6,2.4-7.3,2.4-10.9
				c0-94.8,0.3-189.6-0.6-284.4C2.6,217.3,5.6,122.4,1,27.6C0.6,19.8,0.3,12,0,4.2c0-0.3,0-0.7,0-1c14.6,1.1,29.2,2.2,43.8,3.4
				c26,2.2,52.1,4.4,78.1,6.6c21.6,1.8,43.1,3.9,64.7,5.5c20.6,1.5,41.2,3.5,61.8,3.8c39.7,0.5,79.3-0.1,119-0.1
				c123-0.1,246-0.2,369-0.3c6.5,0,13,0.3,19.5-0.3c34.8-3.4,69.6-7,104.3-10.5c33-3.3,65.9-6.6,98.9-9.9c6.1-0.6,12.1-1,18.5-1.5
				c0.1,2.3,0.3,3.9,0.3,5.6c1,143.8,1.9,287.6,2.8,431.4c0.4,54.7,0.7,109.3,1.2,164c0,2.2,1.8,4.3,2.2,6.5
				c0.6,3.7,1.2,7.5,0.8,11.1c-0.1,1.4-2.8,2.9-4.5,3.6c-60.2,25.7-120.5,51.4-180.7,77.1C788.3,704.1,777.2,709.3,766,714.2z
				 M311.7,612.9c123.1,0.8,246.1,1.7,368.9,2.5c0-122.9,0-245.1,0-367.2c-123.1,0-245.8,0-368.9,0
				C311.7,369.9,311.7,491,311.7,612.9z M212.2,593.6c-0.7-117.9-1.4-234.5-2.1-351.3c-40.2-7.6-79.8-15.1-119.8-22.7
				c-0.1,2.5-0.2,3.9-0.2,5.4c0.3,68.3,0.6,136.6,0.8,204.9c0.2,39,0.3,78,0.4,117c0,3,0.6,4.7,3.8,5.9
				c26.2,9.2,52.2,18.8,78.3,28.1C185.8,585.2,198.1,589,212.2,593.6z M785.3,593.2c3.6-1.3,5.2-1.9,6.9-2.5
				c31.7-11.5,63.4-23,95.2-34.2c3.8-1.3,5.1-2.8,5.1-6.9c-0.1-108.7-0.1-217.3-0.1-326c0-1.8,0-3.5,0-5.5c-1.8,0.1-2.8,0.1-3.7,0.3
				c-33.7,6.9-67.4,13.9-101.1,20.8c-3.6,0.7-4.3,2.4-4.3,5.8c0.7,101.1,1.4,202.3,2.1,303.4C785.4,562.9,785.3,577.3,785.3,593.2z
				 M424.7,214.6c0-36.7,0-72.9,0-109c-38.8,0-77.2,0-115.8,0c0,36.5,0,72.6,0,109C347.6,214.6,386,214.6,424.7,214.6z M680.8,213.3
				c0-36.3,0-72.1,0-107.9c-38.7,0-77,0-115.4,0c0,36.2,0,71.9,0,107.9C603.9,213.3,642.2,213.3,680.8,213.3z M438,213.5
				c11.5,0,22.4-0.1,33.4,0c4.2,0,8.4,0.5,10.6-4.3c0.3-0.7,1.7-1.2,2.5-1.2c11.4-0.1,22.9-0.1,34.7-0.1c0.3,2.1,0.6,4.5,0.9,6.6
				c10.3,0,20.4,0,31,0c0.8-37.1,1.7-73.4,2.5-110c-38.8,0-77.2,0-115.7,0C438,140.8,438,176.8,438,213.5z M787.2,97.6
				c0,34.9,0,69.5,0,104.4c11-1.6,21.8-3.1,32.4-4.6c0-35.4,0-70.3,0-105.5C808.7,93.8,798.3,95.6,787.2,97.6z M169.1,197.9
				c10.8,1.8,21.2,3.6,31.9,5.4c0.4-34.6,0.9-68.6,1.1-102.6c0-1.2-2-2.7-3.4-3.5c-1.4-0.7-3.2-0.6-4.9-0.8
				c-8.3-1.1-16.7-2.1-24.7-3.2C169.1,128.5,169.1,163.1,169.1,197.9z M117.9,88.3c0,34.3,0,68.5,0,102.6c5.3,0.9,9.7,1.8,14.1,2.3
				c1.4,0.2,3.8-0.2,4.3-1.2c3.3-6.1,7.5-2.7,11.5-1.5c1.3,0.4,2.4,1.4,2.9,1.8c0-33.7,0-67.3,0-101.4
				C139.1,90,128.3,89.1,117.9,88.3z M837.1,91.2c0,32.2,0,63.9,0,96c1.1-0.3,1.9-0.5,2.6-0.8c4.2-2.4,8-2.6,11.3,1.6
				c0.5,0.7,2.1,1.1,3,0.9c4.4-0.8,8.7-1.9,13.2-2.9c0-33.4,0-66.4,0-99.8C857.1,87.8,847.3,89.5,837.1,91.2z M99.8,187
				c0-33.9,0-67.5,0-101.4c-7.7-0.4-15.1-0.8-22.9-1.2c0,5.3,0,10.6,0,15.9c0.2,25.3,0.3,50.6,0.6,76c0,1.9,1.1,5.1,2.5,5.5
				C86.5,184,93.1,185.4,99.8,187z M884.7,85.4c0,33.3,0,66.2,0,99.6c4.3-1,8.4-2.3,12.6-3c3.7-0.7,5-2.3,5-6.3
				c-0.2-29.5-0.1-59-0.1-88.5c0-1.6,0-3.2,0-5.2C896.1,83.2,890.7,84.3,884.7,85.4z"/>
		</g>
	</g>
</g>
</svg>
