<?xml version="1.0" encoding="utf-8"?>
<!-- Generator: Adobe Illustrator 18.1.0, SVG Export Plug-In . SVG Version: 6.00 Build 0)  -->
<svg version="1.1" id="Layer_1" xmlns="http://www.w3.org/2000/svg" xmlns:xlink="http://www.w3.org/1999/xlink" x="0px" y="0px"
	 viewBox="0 0 285.9 314" enable-background="new 0 0 285.9 314" xml:space="preserve">
<g>
	<path fill="none" d="M104.4,230.7c26.5-7.4,52.9-14.8,79.8-22.4c3-52.1,5.9-103.7,8.9-156C143,63.5,93.9,74.5,44.2,85.6
		c13.6,46.2,27,91.7,40.3,137c4.6,0.3,11.7,1,12,1.1C96.6,223.9,100.6,227.3,104.4,230.7z"/>
	<path d="M281.5,232.3c-18-61.6-36-123.2-53.8-184.8c-1.3-4.3-1.4-9.1-1.3-13.7c0.2-8.6,0.9-17.3,1.4-25.9c-5.1-2.7-10-5.3-14.8-7.9
		c-1,0-2,0-3,0c-7.6,1.7-15.1,3.6-22.7,5.1C126.5,17,65.7,28.8,4.9,40.6C3.3,41,2.3,41.4,0,41.9C0,49.9,0,57,0,65
		c0.2,9.5,0.6,18.9,0.7,28.4c0.2,62,0.3,123.9,0.5,185.9c0,1.3,0,2.7,0,4.3c4.8,3.7,9.7,7.4,14.5,11.1c20.8-6.8,41.3-13.5,62-20.3
		c0.6,1.3,1.2,2.3,1.6,3.3c3.5,10.9,7,21.9,10.4,32.8c0.3,1.1,0.3,2.2,0.4,3.4c0.7,0,1.3,0,2,0c6.4-2.3,12.7-4.8,19.1-7
		c56.7-19.1,113.4-38.2,170.1-57.3c1.4-0.5,2.8-1,4.7-1.8C284.5,242.7,283.1,237.5,281.5,232.3z M22.9,60.1c0.1-0.8,0.3-1.6,0.5-2.7
		C80.1,45.8,136.7,34.2,194,22.4c0,2,0,3,0,4.9C137.2,39,80.3,50.8,23.2,62.7C23,61.4,22.8,60.8,22.9,60.1z M20.5,79.9
		c0.5-0.1,1-0.2,1.5-0.3c4.7,15.5,9.4,31,14.2,46.8c-5,16.3-10,32.7-15,49.1c-0.5,1.7-0.6,2.4-0.6,2.4
		C20.4,146,20.5,111.7,20.5,79.9z M21.7,258.9c-0.2-2.7-0.5-4.8-0.5-6.8c-0.1-18.3-0.3-58-0.3-58l1.9-6.2c0,0,8.7-30,13.1-45
		c0.5-1.6,1-3,1.5-4.5c0.6-2.1,0.3-1.1,0.7-2.4c10.1,35,20.8,72.2,31,107.6C53.3,248.8,37.8,253.7,21.7,258.9z M44.2,85.6
		C93.9,74.5,143,63.5,193,52.4c-3,52.3-5.9,103.9-8.9,156c-26.9,7.6-53.3,14.9-79.8,22.4c-3.8-3.4-7.8-6.8-7.9-6.9
		c-0.3-0.1-7.5-0.9-12-1.1C71.2,177.4,57.8,131.8,44.2,85.6z M88.5,236.2c-0.9-2.8-2-6.4-3-9.5c3.2,0,8.9,0.6,9,0.6
		c0.3,0.1,3.3,3,5.8,4.9C98.7,232.8,90.8,235.3,88.5,236.2z M102.5,282.7c-0.4-1.2-0.9-2.1-1.3-3.6c3.2,0.4,6.2,0.5,8.9,0.8
		c0.5,0.2,1.1,0.1,2.4,0.3C110.1,280.8,105.3,282,102.5,282.7z M184.4,256.4c-18.7,6.3-60.6,20-60.6,20l-7.3-0.3
		c0,0-10.2-0.6-15.9-1c0.9-2.9,1.7-5.2,2.5-7.7c18.3-5.8,66.2-20.5,66.2-20.5s5.9,0.5,18.2,1.9c0.4,2.1,0.7,3.8,1.1,5.9
		C187.1,255.3,185.8,255.9,184.4,256.4z M195.2,252.6c-0.9-3.2-1.7-6-2.5-9.1c-2.9-0.1-5.6-0.2-8.4-0.4c-2.6-0.2-2.5,0.1-2.6-0.2
		c10.5-3.2,23.3-7.1,34.2-10.4c1.8-33.9,3.6-67.8,5.4-101.6c0.1-1.8,0.1-1.8,0.2-3.7c10.7,34.5,22.5,72.5,33.4,107.9
		C234.9,241,215.3,246.7,195.2,252.6z"/>
</g>
</svg>
